(module transformer_3.3v (layer F.Cu) (tedit 61ED2594)
  (descr "Through hole straight pin header, 1x02, 2.54mm pitch, single row")
  (tags "Through hole pin header THT 1x02 2.54mm single row")
  (fp_text reference REF** (at 0 -2.33) (layer F.SilkS)
    (effects (font (size 1 1) (thickness 0.15)))
  )
  (fp_text value "transformer 3.3v" (at 0 4.87) (layer F.Fab)
    (effects (font (size 1 1) (thickness 0.15)))
  )
  (fp_line (start 1.8 -1.8) (end -1.8 -1.8) (layer F.CrtYd) (width 0.05))
  (fp_line (start 1.8 4.35) (end 1.8 -1.8) (layer F.CrtYd) (width 0.05))
  (fp_line (start -1.8 4.35) (end 1.8 4.35) (layer F.CrtYd) (width 0.05))
  (fp_line (start -1.8 -1.8) (end -1.8 4.35) (layer F.CrtYd) (width 0.05))
  (fp_line (start -1.33 -1.33) (end 0 -1.33) (layer F.SilkS) (width 0.12))
  (fp_line (start -1.33 0) (end -1.33 -1.33) (layer F.SilkS) (width 0.12))
  (fp_line (start -1.33 1.27) (end 1.33 1.27) (layer F.SilkS) (width 0.12))
  (fp_line (start 1.33 1.27) (end 1.33 3.87) (layer F.SilkS) (width 0.12))
  (fp_line (start -1.33 1.27) (end -1.33 3.87) (layer F.SilkS) (width 0.12))
  (fp_line (start -1.33 3.87) (end 1.33 3.87) (layer F.SilkS) (width 0.12))
  (fp_line (start -1.27 -0.635) (end -0.635 -1.27) (layer F.Fab) (width 0.1))
  (fp_line (start -1.27 3.81) (end -1.27 -0.635) (layer F.Fab) (width 0.1))
  (fp_line (start 1.27 3.81) (end -1.27 3.81) (layer F.Fab) (width 0.1))
  (fp_line (start 1.27 -1.27) (end 1.27 3.81) (layer F.Fab) (width 0.1))
  (fp_line (start -0.635 -1.27) (end 1.27 -1.27) (layer F.Fab) (width 0.1))
  (fp_text user output (at -2.54 1.27 90) (layer F.Fab)
    (effects (font (size 1 1) (thickness 0.15)))
  )
  (fp_line (start -1.27 -1.27) (end -1.27 -3.81) (layer F.SilkS) (width 0.12))
  (fp_line (start -1.27 -3.81) (end 30.48 -3.81) (layer F.SilkS) (width 0.12))
  (fp_line (start 30.48 -3.81) (end 30.48 5.08) (layer F.SilkS) (width 0.12))
  (fp_line (start -1.33 3.87) (end -1.27 6.35) (layer F.SilkS) (width 0.12))
  (fp_line (start -1.27 6.35) (end 30.48 6.35) (layer F.SilkS) (width 0.12))
  (fp_line (start 30.48 6.35) (end 30.48 5.08) (layer F.SilkS) (width 0.12))
  (fp_line (start 31.01 4.35) (end 31.01 -1.8) (layer F.CrtYd) (width 0.05))
  (fp_line (start 30.54 1.27) (end 30.54 3.87) (layer F.SilkS) (width 0.12))
  (fp_line (start 30.48 -1.27) (end 30.48 3.81) (layer F.Fab) (width 0.1))
  (fp_line (start 27.88 0) (end 27.88 -1.33) (layer F.SilkS) (width 0.12))
  (fp_line (start 27.41 4.35) (end 31.01 4.35) (layer F.CrtYd) (width 0.05))
  (fp_line (start 27.41 -1.8) (end 27.41 4.35) (layer F.CrtYd) (width 0.05))
  (fp_line (start 28.575 -1.27) (end 30.48 -1.27) (layer F.Fab) (width 0.1))
  (fp_line (start 27.88 -1.33) (end 29.21 -1.33) (layer F.SilkS) (width 0.12))
  (fp_line (start 27.88 1.27) (end 27.88 3.87) (layer F.SilkS) (width 0.12))
  (fp_line (start 27.88 3.87) (end 30.54 3.87) (layer F.SilkS) (width 0.12))
  (fp_line (start 27.88 1.27) (end 30.54 1.27) (layer F.SilkS) (width 0.12))
  (fp_line (start 27.94 -0.635) (end 28.575 -1.27) (layer F.Fab) (width 0.1))
  (fp_line (start 31.01 -1.8) (end 27.41 -1.8) (layer F.CrtYd) (width 0.05))
  (fp_line (start 27.94 3.81) (end 27.94 -0.635) (layer F.Fab) (width 0.1))
  (fp_line (start 30.48 3.81) (end 27.94 3.81) (layer F.Fab) (width 0.1))
  (fp_text user input (at 31.75 1.27 90) (layer F.Fab)
    (effects (font (size 1 1) (thickness 0.15)))
  )
  (pad 1 thru_hole rect (at 0 0) (size 1.7 1.7) (drill 1) (layers *.Cu *.Mask))
  (pad 2 thru_hole oval (at 0 2.54) (size 1.7 1.7) (drill 1) (layers *.Cu *.Mask))
  (pad 4 thru_hole oval (at 29.21 2.54) (size 1.7 1.7) (drill 1) (layers *.Cu *.Mask))
  (pad 3 thru_hole rect (at 29.21 0) (size 1.7 1.7) (drill 1) (layers *.Cu *.Mask))
  (model ${KISYS3DMOD}/Connector_PinHeader_2.54mm.3dshapes/PinHeader_1x02_P2.54mm_Vertical.wrl
    (at (xyz 0 0 0))
    (scale (xyz 1 1 1))
    (rotate (xyz 0 0 0))
  )
)
