(kicad_pcb (version 20171130) (host pcbnew 5.1.10-88a1d61d58~88~ubuntu18.04.1)

  (general
    (thickness 1.6)
    (drawings 4)
    (tracks 202)
    (zones 0)
    (modules 24)
    (nets 36)
  )

  (page A4)
  (layers
    (0 F.Cu signal)
    (31 B.Cu signal)
    (32 B.Adhes user)
    (33 F.Adhes user)
    (34 B.Paste user)
    (35 F.Paste user)
    (36 B.SilkS user)
    (37 F.SilkS user)
    (38 B.Mask user)
    (39 F.Mask user)
    (40 Dwgs.User user)
    (41 Cmts.User user)
    (42 Eco1.User user)
    (43 Eco2.User user)
    (44 Edge.Cuts user)
    (45 Margin user)
    (46 B.CrtYd user)
    (47 F.CrtYd user)
    (48 B.Fab user)
    (49 F.Fab user)
  )

  (setup
    (last_trace_width 1)
    (user_trace_width 1)
    (user_trace_width 1.5)
    (trace_clearance 0.2)
    (zone_clearance 0.508)
    (zone_45_only no)
    (trace_min 0.8)
    (via_size 0.8)
    (via_drill 0.4)
    (via_min_size 0.8)
    (via_min_drill 0.3)
    (user_via 1.5 0.5)
    (user_via 1.5 0.5)
    (uvia_size 1)
    (uvia_drill 0.1)
    (uvias_allowed no)
    (uvia_min_size 0.8)
    (uvia_min_drill 0.1)
    (edge_width 0.05)
    (segment_width 0.2)
    (pcb_text_width 0.3)
    (pcb_text_size 1.5 1.5)
    (mod_edge_width 0.12)
    (mod_text_size 1 1)
    (mod_text_width 0.15)
    (pad_size 1.05 1.5)
    (pad_drill 0.75)
    (pad_to_mask_clearance 0)
    (aux_axis_origin 0 0)
    (visible_elements FFFFFF7F)
    (pcbplotparams
      (layerselection 0x010a8_7fffffff)
      (usegerberextensions true)
      (usegerberattributes true)
      (usegerberadvancedattributes true)
      (creategerberjobfile true)
      (excludeedgelayer true)
      (linewidth 0.100000)
      (plotframeref false)
      (viasonmask false)
      (mode 1)
      (useauxorigin false)
      (hpglpennumber 1)
      (hpglpenspeed 20)
      (hpglpendiameter 15.000000)
      (psnegative false)
      (psa4output false)
      (plotreference true)
      (plotvalue true)
      (plotinvisibletext false)
      (padsonsilk false)
      (subtractmaskfromsilk false)
      (outputformat 1)
      (mirror false)
      (drillshape 0)
      (scaleselection 1)
      (outputdirectory "files/"))
  )

  (net 0 "")
  (net 1 "Net-(IC1-Pad33)")
  (net 2 "Net-(IC1-Pad31)")
  (net 3 "Net-(IC1-Pad30)")
  (net 4 "Net-(IC1-Pad29)")
  (net 5 "Net-(IC1-Pad28)")
  (net 6 "Net-(IC1-Pad27)")
  (net 7 "Net-(IC1-Pad25)")
  (net 8 "Net-(IC1-Pad24)")
  (net 9 "Net-(IC1-Pad23)")
  (net 10 "Net-(IC1-Pad22)")
  (net 11 "Net-(IC1-Pad20)")
  (net 12 "Net-(IC1-Pad19)")
  (net 13 "Net-(IC1-Pad18)")
  (net 14 "Net-(IC1-Pad15)")
  (net 15 "Net-(IC1-Pad14)")
  (net 16 "Net-(IC1-Pad13)")
  (net 17 "Net-(IC1-Pad12)")
  (net 18 "Net-(IC1-Pad11)")
  (net 19 "Net-(IC1-Pad10)")
  (net 20 "Net-(IC1-Pad9)")
  (net 21 "Net-(IC1-Pad8)")
  (net 22 "Net-(IC1-Pad7)")
  (net 23 "Net-(IC1-Pad6)")
  (net 24 "Net-(IC1-Pad5)")
  (net 25 "Net-(IC1-Pad4)")
  (net 26 "Net-(IC1-Pad3)")
  (net 27 "Net-(IC1-Pad2)")
  (net 28 GND)
  (net 29 "Net-(IC1-Pad26)")
  (net 30 VCC)
  (net 31 "Net-(IC1-Pad21)")
  (net 32 "Net-(IC1-Pad16)")
  (net 33 +7.5V)
  (net 34 +3V3)
  (net 35 +5V)

  (net_class Default "This is the default net class."
    (clearance 0.2)
    (trace_width 1)
    (via_dia 0.8)
    (via_drill 0.4)
    (uvia_dia 1)
    (uvia_drill 0.1)
    (diff_pair_width 0.8)
    (diff_pair_gap 0.25)
    (add_net +3V3)
    (add_net +5V)
    (add_net +7.5V)
    (add_net GND)
    (add_net "Net-(IC1-Pad10)")
    (add_net "Net-(IC1-Pad11)")
    (add_net "Net-(IC1-Pad12)")
    (add_net "Net-(IC1-Pad13)")
    (add_net "Net-(IC1-Pad14)")
    (add_net "Net-(IC1-Pad15)")
    (add_net "Net-(IC1-Pad16)")
    (add_net "Net-(IC1-Pad18)")
    (add_net "Net-(IC1-Pad19)")
    (add_net "Net-(IC1-Pad2)")
    (add_net "Net-(IC1-Pad20)")
    (add_net "Net-(IC1-Pad21)")
    (add_net "Net-(IC1-Pad22)")
    (add_net "Net-(IC1-Pad23)")
    (add_net "Net-(IC1-Pad24)")
    (add_net "Net-(IC1-Pad25)")
    (add_net "Net-(IC1-Pad26)")
    (add_net "Net-(IC1-Pad27)")
    (add_net "Net-(IC1-Pad28)")
    (add_net "Net-(IC1-Pad29)")
    (add_net "Net-(IC1-Pad3)")
    (add_net "Net-(IC1-Pad30)")
    (add_net "Net-(IC1-Pad31)")
    (add_net "Net-(IC1-Pad33)")
    (add_net "Net-(IC1-Pad4)")
    (add_net "Net-(IC1-Pad5)")
    (add_net "Net-(IC1-Pad6)")
    (add_net "Net-(IC1-Pad7)")
    (add_net "Net-(IC1-Pad8)")
    (add_net "Net-(IC1-Pad9)")
    (add_net VCC)
  )

  (module MountingHole:MountingHole_3.5mm_Pad_Via (layer B.Cu) (tedit 56DDBDB4) (tstamp 61EE6EE5)
    (at 46.228 64.008)
    (descr "Mounting Hole 3.5mm")
    (tags "mounting hole 3.5mm")
    (attr virtual)
    (fp_text reference REF** (at 0 4.5) (layer B.SilkS)
      (effects (font (size 1 1) (thickness 0.15)) (justify mirror))
    )
    (fp_text value MountingHole_3.5mm_Pad_Via (at 0 -4.5) (layer B.Fab)
      (effects (font (size 1 1) (thickness 0.15)) (justify mirror))
    )
    (fp_circle (center 0 0) (end 3.75 0) (layer B.CrtYd) (width 0.05))
    (fp_circle (center 0 0) (end 3.5 0) (layer Cmts.User) (width 0.15))
    (fp_text user %R (at 0.3 0) (layer B.Fab)
      (effects (font (size 1 1) (thickness 0.15)) (justify mirror))
    )
    (pad 1 thru_hole circle (at 1.856155 1.856155) (size 0.8 0.8) (drill 0.5) (layers *.Cu *.Mask))
    (pad 1 thru_hole circle (at 0 2.625) (size 0.8 0.8) (drill 0.5) (layers *.Cu *.Mask))
    (pad 1 thru_hole circle (at -1.856155 1.856155) (size 0.8 0.8) (drill 0.5) (layers *.Cu *.Mask))
    (pad 1 thru_hole circle (at -2.625 0) (size 0.8 0.8) (drill 0.5) (layers *.Cu *.Mask))
    (pad 1 thru_hole circle (at -1.856155 -1.856155) (size 0.8 0.8) (drill 0.5) (layers *.Cu *.Mask))
    (pad 1 thru_hole circle (at 0 -2.625) (size 0.8 0.8) (drill 0.5) (layers *.Cu *.Mask))
    (pad 1 thru_hole circle (at 1.856155 -1.856155) (size 0.8 0.8) (drill 0.5) (layers *.Cu *.Mask))
    (pad 1 thru_hole circle (at 2.625 0) (size 0.8 0.8) (drill 0.5) (layers *.Cu *.Mask))
    (pad 1 thru_hole circle (at 0 0) (size 7 7) (drill 3.5) (layers *.Cu *.Mask))
  )

  (module MountingHole:MountingHole_3.5mm_Pad_Via (layer B.Cu) (tedit 56DDBDB4) (tstamp 61EE6EA8)
    (at 32.004 25.4)
    (descr "Mounting Hole 3.5mm")
    (tags "mounting hole 3.5mm")
    (attr virtual)
    (fp_text reference REF** (at 0 4.5) (layer B.SilkS)
      (effects (font (size 1 1) (thickness 0.15)) (justify mirror))
    )
    (fp_text value MountingHole_3.5mm_Pad_Via (at 0 -4.5) (layer B.Fab)
      (effects (font (size 1 1) (thickness 0.15)) (justify mirror))
    )
    (fp_circle (center 0 0) (end 3.75 0) (layer B.CrtYd) (width 0.05))
    (fp_circle (center 0 0) (end 3.5 0) (layer Cmts.User) (width 0.15))
    (fp_text user %R (at 0.3 0) (layer B.Fab)
      (effects (font (size 1 1) (thickness 0.15)) (justify mirror))
    )
    (pad 1 thru_hole circle (at 1.856155 1.856155) (size 0.8 0.8) (drill 0.5) (layers *.Cu *.Mask))
    (pad 1 thru_hole circle (at 0 2.625) (size 0.8 0.8) (drill 0.5) (layers *.Cu *.Mask))
    (pad 1 thru_hole circle (at -1.856155 1.856155) (size 0.8 0.8) (drill 0.5) (layers *.Cu *.Mask))
    (pad 1 thru_hole circle (at -2.625 0) (size 0.8 0.8) (drill 0.5) (layers *.Cu *.Mask))
    (pad 1 thru_hole circle (at -1.856155 -1.856155) (size 0.8 0.8) (drill 0.5) (layers *.Cu *.Mask))
    (pad 1 thru_hole circle (at 0 -2.625) (size 0.8 0.8) (drill 0.5) (layers *.Cu *.Mask))
    (pad 1 thru_hole circle (at 1.856155 -1.856155) (size 0.8 0.8) (drill 0.5) (layers *.Cu *.Mask))
    (pad 1 thru_hole circle (at 2.625 0) (size 0.8 0.8) (drill 0.5) (layers *.Cu *.Mask))
    (pad 1 thru_hole circle (at 0 0) (size 7 7) (drill 3.5) (layers *.Cu *.Mask))
  )

  (module Connector_PinHeader_2.54mm:PinHeader_1x03_P2.54mm_Vertical (layer B.Cu) (tedit 59FED5CC) (tstamp 61ECA029)
    (at 59.944 31.496 270)
    (descr "Through hole straight pin header, 1x03, 2.54mm pitch, single row")
    (tags "Through hole pin header THT 1x03 2.54mm single row")
    (path /616C6AFD)
    (fp_text reference J6 (at 0 2.33 270) (layer B.SilkS)
      (effects (font (size 1 1) (thickness 0.15)) (justify mirror))
    )
    (fp_text value leg_br (at 0 -7.41 270) (layer B.Fab)
      (effects (font (size 1 1) (thickness 0.15)) (justify mirror))
    )
    (fp_line (start -0.635 1.27) (end 1.27 1.27) (layer B.Fab) (width 0.1))
    (fp_line (start 1.27 1.27) (end 1.27 -6.35) (layer B.Fab) (width 0.1))
    (fp_line (start 1.27 -6.35) (end -1.27 -6.35) (layer B.Fab) (width 0.1))
    (fp_line (start -1.27 -6.35) (end -1.27 0.635) (layer B.Fab) (width 0.1))
    (fp_line (start -1.27 0.635) (end -0.635 1.27) (layer B.Fab) (width 0.1))
    (fp_line (start -1.33 -6.41) (end 1.33 -6.41) (layer B.SilkS) (width 0.12))
    (fp_line (start -1.33 -1.27) (end -1.33 -6.41) (layer B.SilkS) (width 0.12))
    (fp_line (start 1.33 -1.27) (end 1.33 -6.41) (layer B.SilkS) (width 0.12))
    (fp_line (start -1.33 -1.27) (end 1.33 -1.27) (layer B.SilkS) (width 0.12))
    (fp_line (start -1.33 0) (end -1.33 1.33) (layer B.SilkS) (width 0.12))
    (fp_line (start -1.33 1.33) (end 0 1.33) (layer B.SilkS) (width 0.12))
    (fp_line (start -1.8 1.8) (end -1.8 -6.85) (layer B.CrtYd) (width 0.05))
    (fp_line (start -1.8 -6.85) (end 1.8 -6.85) (layer B.CrtYd) (width 0.05))
    (fp_line (start 1.8 -6.85) (end 1.8 1.8) (layer B.CrtYd) (width 0.05))
    (fp_line (start 1.8 1.8) (end -1.8 1.8) (layer B.CrtYd) (width 0.05))
    (fp_text user %R (at 0 -2.54) (layer B.Fab)
      (effects (font (size 1 1) (thickness 0.15)) (justify mirror))
    )
    (pad 3 thru_hole oval (at 0 -5.08 270) (size 1.7 1.7) (drill 1) (layers *.Cu *.Mask)
      (net 16 "Net-(IC1-Pad13)"))
    (pad 2 thru_hole oval (at 0 -2.54 270) (size 1.7 1.7) (drill 1) (layers *.Cu *.Mask)
      (net 17 "Net-(IC1-Pad12)"))
    (pad 1 thru_hole rect (at 0 0 270) (size 1.7 1.7) (drill 1) (layers *.Cu *.Mask)
      (net 18 "Net-(IC1-Pad11)"))
    (model ${KISYS3DMOD}/Connector_PinHeader_2.54mm.3dshapes/PinHeader_1x03_P2.54mm_Vertical.wrl
      (at (xyz 0 0 0))
      (scale (xyz 1 1 1))
      (rotate (xyz 0 0 0))
    )
  )

  (module pavlov_mini:pavlov_mini_5v_transformer (layer B.Cu) (tedit 61ED230F) (tstamp 61ECA0AB)
    (at 66.548 14.732 180)
    (descr "Through hole straight pin header, 1x04, 2.54mm pitch, single row")
    (tags "Through hole pin header THT 1x04 2.54mm single row")
    (path /61F4C10E)
    (fp_text reference J12 (at 0 2.33) (layer B.SilkS)
      (effects (font (size 1 1) (thickness 0.15)) (justify mirror))
    )
    (fp_text value 5v_transformer (at 0 -9.95) (layer B.Fab)
      (effects (font (size 1 1) (thickness 0.15)) (justify mirror))
    )
    (fp_line (start -20.32 1.27) (end -1.27 1.27) (layer B.SilkS) (width 0.12))
    (fp_line (start -20.32 -13.97) (end -20.32 1.27) (layer B.SilkS) (width 0.12))
    (fp_line (start 1.27 -13.97) (end -20.32 -13.97) (layer B.SilkS) (width 0.12))
    (fp_line (start 1.33 -8.95) (end 1.27 -13.97) (layer B.SilkS) (width 0.12))
    (fp_line (start 1.8 1.8) (end -1.8 1.8) (layer B.CrtYd) (width 0.05))
    (fp_line (start 1.8 -9.4) (end 1.8 1.8) (layer B.CrtYd) (width 0.05))
    (fp_line (start -1.8 -9.4) (end 1.8 -9.4) (layer B.CrtYd) (width 0.05))
    (fp_line (start -1.8 1.8) (end -1.8 -9.4) (layer B.CrtYd) (width 0.05))
    (fp_line (start -1.33 1.33) (end 0 1.33) (layer B.SilkS) (width 0.12))
    (fp_line (start -1.33 0) (end -1.33 1.33) (layer B.SilkS) (width 0.12))
    (fp_line (start -1.33 -1.27) (end 1.33 -1.27) (layer B.SilkS) (width 0.12))
    (fp_line (start 1.33 -1.27) (end 1.33 -8.95) (layer B.SilkS) (width 0.12))
    (fp_line (start -1.33 -1.27) (end -1.33 -8.95) (layer B.SilkS) (width 0.12))
    (fp_line (start -1.33 -8.95) (end 1.33 -8.95) (layer B.SilkS) (width 0.12))
    (fp_line (start -1.27 0.635) (end -0.635 1.27) (layer B.Fab) (width 0.1))
    (fp_line (start -1.27 -8.89) (end -1.27 0.635) (layer B.Fab) (width 0.1))
    (fp_line (start 1.27 -8.89) (end -1.27 -8.89) (layer B.Fab) (width 0.1))
    (fp_line (start 1.27 1.27) (end 1.27 -8.89) (layer B.Fab) (width 0.1))
    (fp_line (start -0.635 1.27) (end 1.27 1.27) (layer B.Fab) (width 0.1))
    (fp_text user %R (at 0 -3.81 270) (layer B.Fab)
      (effects (font (size 1 1) (thickness 0.15)) (justify mirror))
    )
    (pad 4 thru_hole oval (at 0 -7.62 180) (size 1.7 1.7) (drill 1) (layers *.Cu *.Mask)
      (net 30 VCC))
    (pad 3 thru_hole oval (at 0 -5.08 180) (size 1.7 1.7) (drill 1) (layers *.Cu *.Mask)
      (net 28 GND))
    (pad 2 thru_hole oval (at 0 -2.54 180) (size 1.7 1.7) (drill 1) (layers *.Cu *.Mask)
      (net 28 GND))
    (pad 1 thru_hole rect (at 0 0 180) (size 1.7 1.7) (drill 1) (layers *.Cu *.Mask)
      (net 35 +5V))
    (model ${KISYS3DMOD}/Connector_PinHeader_2.54mm.3dshapes/PinHeader_1x04_P2.54mm_Vertical.wrl
      (at (xyz 0 0 0))
      (scale (xyz 1 1 1))
      (rotate (xyz 0 0 0))
    )
  )

  (module Connector_PinSocket_2.54mm:PinSocket_1x02_P2.54mm_Vertical (layer B.Cu) (tedit 5A19A420) (tstamp 61ECBE38)
    (at 62.484 18.796)
    (descr "Through hole straight socket strip, 1x02, 2.54mm pitch, single row (from Kicad 4.0.7), script generated")
    (tags "Through hole socket strip THT 1x02 2.54mm single row")
    (path /61F21B9F)
    (fp_text reference J20 (at 0 2.77) (layer B.SilkS)
      (effects (font (size 1 1) (thickness 0.15)) (justify mirror))
    )
    (fp_text value in_Vcc (at 0 -5.31) (layer B.Fab)
      (effects (font (size 1 1) (thickness 0.15)) (justify mirror))
    )
    (fp_line (start -1.8 -4.3) (end -1.8 1.8) (layer B.CrtYd) (width 0.05))
    (fp_line (start 1.75 -4.3) (end -1.8 -4.3) (layer B.CrtYd) (width 0.05))
    (fp_line (start 1.75 1.8) (end 1.75 -4.3) (layer B.CrtYd) (width 0.05))
    (fp_line (start -1.8 1.8) (end 1.75 1.8) (layer B.CrtYd) (width 0.05))
    (fp_line (start 0 1.33) (end 1.33 1.33) (layer B.SilkS) (width 0.12))
    (fp_line (start 1.33 1.33) (end 1.33 0) (layer B.SilkS) (width 0.12))
    (fp_line (start 1.33 -1.27) (end 1.33 -3.87) (layer B.SilkS) (width 0.12))
    (fp_line (start -1.33 -3.87) (end 1.33 -3.87) (layer B.SilkS) (width 0.12))
    (fp_line (start -1.33 -1.27) (end -1.33 -3.87) (layer B.SilkS) (width 0.12))
    (fp_line (start -1.33 -1.27) (end 1.33 -1.27) (layer B.SilkS) (width 0.12))
    (fp_line (start -1.27 -3.81) (end -1.27 1.27) (layer B.Fab) (width 0.1))
    (fp_line (start 1.27 -3.81) (end -1.27 -3.81) (layer B.Fab) (width 0.1))
    (fp_line (start 1.27 0.635) (end 1.27 -3.81) (layer B.Fab) (width 0.1))
    (fp_line (start 0.635 1.27) (end 1.27 0.635) (layer B.Fab) (width 0.1))
    (fp_line (start -1.27 1.27) (end 0.635 1.27) (layer B.Fab) (width 0.1))
    (fp_text user %R (at 0 -1.27 -90) (layer B.Fab)
      (effects (font (size 1 1) (thickness 0.15)) (justify mirror))
    )
    (pad 2 thru_hole oval (at 0 -2.54) (size 1.7 1.7) (drill 1) (layers *.Cu *.Mask)
      (net 28 GND))
    (pad 1 thru_hole rect (at 0 0) (size 1.7 1.7) (drill 1) (layers *.Cu *.Mask)
      (net 34 +3V3))
    (model ${KISYS3DMOD}/Connector_PinSocket_2.54mm.3dshapes/PinSocket_1x02_P2.54mm_Vertical.wrl
      (at (xyz 0 0 0))
      (scale (xyz 1 1 1))
      (rotate (xyz 0 0 0))
    )
  )

  (module B2P-VH:SHDR2W114P0X396_1X2_786X850X940P (layer B.Cu) (tedit 616C0AFF) (tstamp 61EE0AA3)
    (at 91.948 18.796 270)
    (descr "B2P-VH(LF)(SN)")
    (tags Connector)
    (path /61FEA0B8)
    (fp_text reference J16 (at 0 0 270) (layer B.SilkS)
      (effects (font (size 1.27 1.27) (thickness 0.254)) (justify mirror))
    )
    (fp_text value power_raspi (at 0 0 270) (layer B.SilkS) hide
      (effects (font (size 1.27 1.27) (thickness 0.254)) (justify mirror))
    )
    (fp_line (start -2.2 -4.5) (end -2.2 4.5) (layer Dwgs.User) (width 0.05))
    (fp_line (start -2.2 4.5) (end 6.16 4.5) (layer Dwgs.User) (width 0.05))
    (fp_line (start 6.16 4.5) (end 6.16 -4.5) (layer Dwgs.User) (width 0.05))
    (fp_line (start 6.16 -4.5) (end -2.2 -4.5) (layer Dwgs.User) (width 0.05))
    (fp_line (start -1.95 -4.25) (end -1.95 4.25) (layer Dwgs.User) (width 0.1))
    (fp_line (start -1.95 4.25) (end 5.91 4.25) (layer Dwgs.User) (width 0.1))
    (fp_line (start 5.91 4.25) (end 5.91 -4.25) (layer Dwgs.User) (width 0.1))
    (fp_line (start 5.91 -4.25) (end -1.95 -4.25) (layer Dwgs.User) (width 0.1))
    (fp_line (start 0 -4.25) (end 5.91 -4.25) (layer B.SilkS) (width 0.2))
    (fp_line (start 5.91 -4.25) (end 5.91 4.25) (layer B.SilkS) (width 0.2))
    (fp_line (start 5.91 4.25) (end -1.95 4.25) (layer B.SilkS) (width 0.2))
    (fp_line (start -1.95 4.25) (end -1.95 0) (layer B.SilkS) (width 0.2))
    (pad 2 thru_hole circle (at 3.96 0 180) (size 2.7 2.7) (drill 1.8) (layers *.Cu *.Mask B.SilkS)
      (net 28 GND))
    (pad 1 thru_hole rect (at 0 0 180) (size 2.7 2.7) (drill 1.8) (layers *.Cu *.Mask B.SilkS)
      (net 35 +5V))
  )

  (module TEENSY_4.0:TEENSY40 (layer B.Cu) (tedit 616B42FE) (tstamp 61EC9FA8)
    (at 22.098 42.926)
    (descr "TEENSY 4.0-4")
    (tags "Integrated Circuit")
    (path /616DE488)
    (fp_text reference IC1 (at 16.51 7.62) (layer B.SilkS)
      (effects (font (size 1.27 1.27) (thickness 0.254)) (justify mirror))
    )
    (fp_text value TEENSY_4.0 (at 16.51 7.62) (layer B.SilkS) hide
      (effects (font (size 1.27 1.27) (thickness 0.254)) (justify mirror))
    )
    (fp_line (start -1.27 -1.27) (end -1.27 16.51) (layer B.SilkS) (width 0.1))
    (fp_line (start 34.29 -1.27) (end -1.27 -1.27) (layer B.SilkS) (width 0.1))
    (fp_line (start 34.29 16.51) (end 34.29 -1.27) (layer B.SilkS) (width 0.1))
    (fp_line (start -1.27 16.51) (end 34.29 16.51) (layer B.SilkS) (width 0.1))
    (fp_line (start -2.27 -2.27) (end -2.27 17.51) (layer Dwgs.User) (width 0.1))
    (fp_line (start 35.29 -2.27) (end -2.27 -2.27) (layer Dwgs.User) (width 0.1))
    (fp_line (start 35.29 17.51) (end 35.29 -2.27) (layer Dwgs.User) (width 0.1))
    (fp_line (start -2.27 17.51) (end 35.29 17.51) (layer Dwgs.User) (width 0.1))
    (fp_line (start -1.27 -1.27) (end -1.27 16.51) (layer Dwgs.User) (width 0.2))
    (fp_line (start 34.29 -1.27) (end -1.27 -1.27) (layer Dwgs.User) (width 0.2))
    (fp_line (start 34.29 16.51) (end 34.29 -1.27) (layer Dwgs.User) (width 0.2))
    (fp_line (start -1.27 16.51) (end 34.29 16.51) (layer Dwgs.User) (width 0.2))
    (pad 34 thru_hole circle (at 2.54 12.7 270) (size 1.665 1.665) (drill 1.11) (layers *.Cu *.Mask B.SilkS)
      (net 28 GND))
    (pad 33 thru_hole circle (at 0 15.24 270) (size 1.665 1.665) (drill 1.11) (layers *.Cu *.Mask B.SilkS)
      (net 1 "Net-(IC1-Pad33)"))
    (pad 32 thru_hole circle (at 2.54 15.24 270) (size 1.665 1.665) (drill 1.11) (layers *.Cu *.Mask B.SilkS)
      (net 28 GND))
    (pad 31 thru_hole circle (at 5.08 15.24 270) (size 1.665 1.665) (drill 1.11) (layers *.Cu *.Mask B.SilkS)
      (net 2 "Net-(IC1-Pad31)"))
    (pad 30 thru_hole circle (at 7.62 15.24 270) (size 1.665 1.665) (drill 1.11) (layers *.Cu *.Mask B.SilkS)
      (net 3 "Net-(IC1-Pad30)"))
    (pad 29 thru_hole circle (at 10.16 15.24 270) (size 1.665 1.665) (drill 1.11) (layers *.Cu *.Mask B.SilkS)
      (net 4 "Net-(IC1-Pad29)"))
    (pad 28 thru_hole circle (at 12.7 15.24 270) (size 1.665 1.665) (drill 1.11) (layers *.Cu *.Mask B.SilkS)
      (net 5 "Net-(IC1-Pad28)"))
    (pad 27 thru_hole circle (at 15.24 15.24 270) (size 1.665 1.665) (drill 1.11) (layers *.Cu *.Mask B.SilkS)
      (net 6 "Net-(IC1-Pad27)"))
    (pad 26 thru_hole circle (at 17.78 15.24 270) (size 1.665 1.665) (drill 1.11) (layers *.Cu *.Mask B.SilkS)
      (net 29 "Net-(IC1-Pad26)"))
    (pad 25 thru_hole circle (at 20.32 15.24 270) (size 1.665 1.665) (drill 1.11) (layers *.Cu *.Mask B.SilkS)
      (net 7 "Net-(IC1-Pad25)"))
    (pad 24 thru_hole circle (at 22.86 15.24 270) (size 1.665 1.665) (drill 1.11) (layers *.Cu *.Mask B.SilkS)
      (net 8 "Net-(IC1-Pad24)"))
    (pad 23 thru_hole circle (at 25.4 15.24 270) (size 1.665 1.665) (drill 1.11) (layers *.Cu *.Mask B.SilkS)
      (net 9 "Net-(IC1-Pad23)"))
    (pad 22 thru_hole circle (at 27.94 15.24 270) (size 1.665 1.665) (drill 1.11) (layers *.Cu *.Mask B.SilkS)
      (net 10 "Net-(IC1-Pad22)"))
    (pad 21 thru_hole circle (at 30.48 15.24 270) (size 1.665 1.665) (drill 1.11) (layers *.Cu *.Mask B.SilkS)
      (net 31 "Net-(IC1-Pad21)"))
    (pad 20 thru_hole circle (at 33.02 15.24 270) (size 1.665 1.665) (drill 1.11) (layers *.Cu *.Mask B.SilkS)
      (net 11 "Net-(IC1-Pad20)"))
    (pad 19 thru_hole circle (at 33.02 12.7 270) (size 1.665 1.665) (drill 1.11) (layers *.Cu *.Mask B.SilkS)
      (net 12 "Net-(IC1-Pad19)"))
    (pad 18 thru_hole circle (at 33.02 10.16 270) (size 1.665 1.665) (drill 1.11) (layers *.Cu *.Mask B.SilkS)
      (net 13 "Net-(IC1-Pad18)"))
    (pad 17 thru_hole circle (at 33.02 7.62 270) (size 1.665 1.665) (drill 1.11) (layers *.Cu *.Mask B.SilkS)
      (net 28 GND))
    (pad 16 thru_hole circle (at 33.02 5.08 270) (size 1.665 1.665) (drill 1.11) (layers *.Cu *.Mask B.SilkS)
      (net 32 "Net-(IC1-Pad16)"))
    (pad 15 thru_hole circle (at 33.02 2.54 270) (size 1.665 1.665) (drill 1.11) (layers *.Cu *.Mask B.SilkS)
      (net 14 "Net-(IC1-Pad15)"))
    (pad 14 thru_hole circle (at 33.02 0 270) (size 1.665 1.665) (drill 1.11) (layers *.Cu *.Mask B.SilkS)
      (net 15 "Net-(IC1-Pad14)"))
    (pad 13 thru_hole circle (at 30.48 0 270) (size 1.665 1.665) (drill 1.11) (layers *.Cu *.Mask B.SilkS)
      (net 16 "Net-(IC1-Pad13)"))
    (pad 12 thru_hole circle (at 27.94 0 270) (size 1.665 1.665) (drill 1.11) (layers *.Cu *.Mask B.SilkS)
      (net 17 "Net-(IC1-Pad12)"))
    (pad 11 thru_hole circle (at 25.4 0 270) (size 1.665 1.665) (drill 1.11) (layers *.Cu *.Mask B.SilkS)
      (net 18 "Net-(IC1-Pad11)"))
    (pad 10 thru_hole circle (at 22.86 0 270) (size 1.665 1.665) (drill 1.11) (layers *.Cu *.Mask B.SilkS)
      (net 19 "Net-(IC1-Pad10)"))
    (pad 9 thru_hole circle (at 20.32 0 270) (size 1.665 1.665) (drill 1.11) (layers *.Cu *.Mask B.SilkS)
      (net 20 "Net-(IC1-Pad9)"))
    (pad 8 thru_hole circle (at 17.78 0 270) (size 1.665 1.665) (drill 1.11) (layers *.Cu *.Mask B.SilkS)
      (net 21 "Net-(IC1-Pad8)"))
    (pad 7 thru_hole circle (at 15.24 0 270) (size 1.665 1.665) (drill 1.11) (layers *.Cu *.Mask B.SilkS)
      (net 22 "Net-(IC1-Pad7)"))
    (pad 6 thru_hole circle (at 12.7 0 270) (size 1.665 1.665) (drill 1.11) (layers *.Cu *.Mask B.SilkS)
      (net 23 "Net-(IC1-Pad6)"))
    (pad 5 thru_hole circle (at 10.16 0 270) (size 1.665 1.665) (drill 1.11) (layers *.Cu *.Mask B.SilkS)
      (net 24 "Net-(IC1-Pad5)"))
    (pad 4 thru_hole circle (at 7.62 0 270) (size 1.665 1.665) (drill 1.11) (layers *.Cu *.Mask B.SilkS)
      (net 25 "Net-(IC1-Pad4)"))
    (pad 3 thru_hole circle (at 5.08 0 270) (size 1.665 1.665) (drill 1.11) (layers *.Cu *.Mask B.SilkS)
      (net 26 "Net-(IC1-Pad3)"))
    (pad 2 thru_hole circle (at 2.54 0 270) (size 1.665 1.665) (drill 1.11) (layers *.Cu *.Mask B.SilkS)
      (net 27 "Net-(IC1-Pad2)"))
    (pad 1 thru_hole circle (at 0 0 270) (size 1.665 1.665) (drill 1.11) (layers *.Cu *.Mask B.SilkS)
      (net 28 GND))
  )

  (module B2P-VH:SHDR2W114P0X396_1X2_786X850X940P (layer B.Cu) (tedit 616C0AFF) (tstamp 61ED2890)
    (at 53.848 17.272)
    (descr "B2P-VH(LF)(SN)")
    (tags Connector)
    (path /61780B98)
    (fp_text reference J9 (at 0 0) (layer B.SilkS)
      (effects (font (size 1.27 1.27) (thickness 0.254)) (justify mirror))
    )
    (fp_text value "power bl" (at 0 0) (layer B.SilkS) hide
      (effects (font (size 1.27 1.27) (thickness 0.254)) (justify mirror))
    )
    (fp_line (start -1.95 4.25) (end -1.95 0) (layer B.SilkS) (width 0.2))
    (fp_line (start 5.91 4.25) (end -1.95 4.25) (layer B.SilkS) (width 0.2))
    (fp_line (start 5.91 -4.25) (end 5.91 4.25) (layer B.SilkS) (width 0.2))
    (fp_line (start 0 -4.25) (end 5.91 -4.25) (layer B.SilkS) (width 0.2))
    (fp_line (start 5.91 -4.25) (end -1.95 -4.25) (layer Dwgs.User) (width 0.1))
    (fp_line (start 5.91 4.25) (end 5.91 -4.25) (layer Dwgs.User) (width 0.1))
    (fp_line (start -1.95 4.25) (end 5.91 4.25) (layer Dwgs.User) (width 0.1))
    (fp_line (start -1.95 -4.25) (end -1.95 4.25) (layer Dwgs.User) (width 0.1))
    (fp_line (start 6.16 -4.5) (end -2.2 -4.5) (layer Dwgs.User) (width 0.05))
    (fp_line (start 6.16 4.5) (end 6.16 -4.5) (layer Dwgs.User) (width 0.05))
    (fp_line (start -2.2 4.5) (end 6.16 4.5) (layer Dwgs.User) (width 0.05))
    (fp_line (start -2.2 -4.5) (end -2.2 4.5) (layer Dwgs.User) (width 0.05))
    (pad 2 thru_hole circle (at 3.96 0 270) (size 2.7 2.7) (drill 1.8) (layers *.Cu *.Mask B.SilkS)
      (net 28 GND))
    (pad 1 thru_hole rect (at 0 0 270) (size 2.7 2.7) (drill 1.8) (layers *.Cu *.Mask B.SilkS)
      (net 33 +7.5V))
  )

  (module Connector_PinHeader_2.54mm:PinHeader_1x03_P2.54mm_Vertical (layer B.Cu) (tedit 59FED5CC) (tstamp 61ECA012)
    (at 45.593 31.496 270)
    (descr "Through hole straight pin header, 1x03, 2.54mm pitch, single row")
    (tags "Through hole pin header THT 1x03 2.54mm single row")
    (path /616C4EE3)
    (fp_text reference J5 (at 0 2.33 270) (layer B.SilkS)
      (effects (font (size 1 1) (thickness 0.15)) (justify mirror))
    )
    (fp_text value leg_fr (at 0 -7.41 270) (layer B.Fab)
      (effects (font (size 1 1) (thickness 0.15)) (justify mirror))
    )
    (fp_line (start -0.635 1.27) (end 1.27 1.27) (layer B.Fab) (width 0.1))
    (fp_line (start 1.27 1.27) (end 1.27 -6.35) (layer B.Fab) (width 0.1))
    (fp_line (start 1.27 -6.35) (end -1.27 -6.35) (layer B.Fab) (width 0.1))
    (fp_line (start -1.27 -6.35) (end -1.27 0.635) (layer B.Fab) (width 0.1))
    (fp_line (start -1.27 0.635) (end -0.635 1.27) (layer B.Fab) (width 0.1))
    (fp_line (start -1.33 -6.41) (end 1.33 -6.41) (layer B.SilkS) (width 0.12))
    (fp_line (start -1.33 -1.27) (end -1.33 -6.41) (layer B.SilkS) (width 0.12))
    (fp_line (start 1.33 -1.27) (end 1.33 -6.41) (layer B.SilkS) (width 0.12))
    (fp_line (start -1.33 -1.27) (end 1.33 -1.27) (layer B.SilkS) (width 0.12))
    (fp_line (start -1.33 0) (end -1.33 1.33) (layer B.SilkS) (width 0.12))
    (fp_line (start -1.33 1.33) (end 0 1.33) (layer B.SilkS) (width 0.12))
    (fp_line (start -1.8 1.8) (end -1.8 -6.85) (layer B.CrtYd) (width 0.05))
    (fp_line (start -1.8 -6.85) (end 1.8 -6.85) (layer B.CrtYd) (width 0.05))
    (fp_line (start 1.8 -6.85) (end 1.8 1.8) (layer B.CrtYd) (width 0.05))
    (fp_line (start 1.8 1.8) (end -1.8 1.8) (layer B.CrtYd) (width 0.05))
    (fp_text user %R (at 0 -2.54) (layer B.Fab)
      (effects (font (size 1 1) (thickness 0.15)) (justify mirror))
    )
    (pad 3 thru_hole oval (at 0 -5.08 270) (size 1.7 1.7) (drill 1) (layers *.Cu *.Mask)
      (net 19 "Net-(IC1-Pad10)"))
    (pad 2 thru_hole oval (at 0 -2.54 270) (size 1.7 1.7) (drill 1) (layers *.Cu *.Mask)
      (net 20 "Net-(IC1-Pad9)"))
    (pad 1 thru_hole rect (at 0 0 270) (size 1.7 1.7) (drill 1) (layers *.Cu *.Mask)
      (net 21 "Net-(IC1-Pad8)"))
    (model ${KISYS3DMOD}/Connector_PinHeader_2.54mm.3dshapes/PinHeader_1x03_P2.54mm_Vertical.wrl
      (at (xyz 0 0 0))
      (scale (xyz 1 1 1))
      (rotate (xyz 0 0 0))
    )
  )

  (module pavlov_mini:relay (layer B.Cu) (tedit 61ED2844) (tstamp 61ECCD50)
    (at 71.628 40.64)
    (descr "Through hole straight pin header, 1x03, 2.54mm pitch, single row")
    (tags "Through hole pin header THT 1x03 2.54mm single row")
    (path /61EF1C07)
    (fp_text reference J10 (at 0 2.33) (layer B.SilkS)
      (effects (font (size 1 1) (thickness 0.15)) (justify mirror))
    )
    (fp_text value relay_entry (at 0 -7.41) (layer B.Fab)
      (effects (font (size 1 1) (thickness 0.15)) (justify mirror))
    )
    (fp_line (start -1.27 -11.43) (end -1.33 -6.41) (layer B.SilkS) (width 0.12))
    (fp_line (start 34.29 -11.43) (end -1.27 -11.43) (layer B.SilkS) (width 0.12))
    (fp_line (start 34.29 15.24) (end 34.29 -11.43) (layer B.SilkS) (width 0.12))
    (fp_line (start -1.27 15.24) (end 34.29 15.24) (layer B.SilkS) (width 0.12))
    (fp_line (start -1.27 1.27) (end -1.27 15.24) (layer B.SilkS) (width 0.12))
    (fp_line (start -0.635 1.27) (end 1.27 1.27) (layer B.Fab) (width 0.1))
    (fp_line (start 1.27 1.27) (end 1.27 -6.35) (layer B.Fab) (width 0.1))
    (fp_line (start 1.27 -6.35) (end -1.27 -6.35) (layer B.Fab) (width 0.1))
    (fp_line (start -1.27 -6.35) (end -1.27 0.635) (layer B.Fab) (width 0.1))
    (fp_line (start -1.27 0.635) (end -0.635 1.27) (layer B.Fab) (width 0.1))
    (fp_line (start -1.33 -6.41) (end 1.33 -6.41) (layer B.SilkS) (width 0.12))
    (fp_line (start -1.33 -1.27) (end -1.33 -6.41) (layer B.SilkS) (width 0.12))
    (fp_line (start 1.33 -1.27) (end 1.33 -6.41) (layer B.SilkS) (width 0.12))
    (fp_line (start -1.33 -1.27) (end 1.33 -1.27) (layer B.SilkS) (width 0.12))
    (fp_line (start -1.33 0) (end -1.33 1.33) (layer B.SilkS) (width 0.12))
    (fp_line (start -1.33 1.33) (end 0 1.33) (layer B.SilkS) (width 0.12))
    (fp_line (start -1.8 1.8) (end -1.8 -6.85) (layer B.CrtYd) (width 0.05))
    (fp_line (start -1.8 -6.85) (end 1.8 -6.85) (layer B.CrtYd) (width 0.05))
    (fp_line (start 1.8 -6.85) (end 1.8 1.8) (layer B.CrtYd) (width 0.05))
    (fp_line (start 1.8 1.8) (end -1.8 1.8) (layer B.CrtYd) (width 0.05))
    (fp_text user %R (at 0 -2.54 -90) (layer B.Fab)
      (effects (font (size 1 1) (thickness 0.15)) (justify mirror))
    )
    (pad 3 thru_hole oval (at 0 -5.08) (size 1.7 1.7) (drill 1) (layers *.Cu *.Mask)
      (net 28 GND))
    (pad 2 thru_hole oval (at 0 -2.54) (size 1.7 1.7) (drill 1) (layers *.Cu *.Mask)
      (net 34 +3V3))
    (pad 1 thru_hole rect (at 0 0) (size 1.7 1.7) (drill 1) (layers *.Cu *.Mask)
      (net 31 "Net-(IC1-Pad21)"))
    (model ${KISYS3DMOD}/Connector_PinHeader_2.54mm.3dshapes/PinHeader_1x03_P2.54mm_Vertical.wrl
      (at (xyz 0 0 0))
      (scale (xyz 1 1 1))
      (rotate (xyz 0 0 0))
    )
  )

  (module pavlov_mini:transformer_3.3v (layer B.Cu) (tedit 61ED2594) (tstamp 61EE1385)
    (at 58.42 76.2)
    (descr "Through hole straight pin header, 1x02, 2.54mm pitch, single row")
    (tags "Through hole pin header THT 1x02 2.54mm single row")
    (path /61F94827)
    (fp_text reference J13 (at 0 2.33) (layer B.SilkS)
      (effects (font (size 1 1) (thickness 0.15)) (justify mirror))
    )
    (fp_text value "3.3v transformer" (at 0 -4.87) (layer B.Fab)
      (effects (font (size 1 1) (thickness 0.15)) (justify mirror))
    )
    (fp_line (start 30.48 -3.81) (end 27.94 -3.81) (layer B.Fab) (width 0.1))
    (fp_line (start 27.94 -3.81) (end 27.94 0.635) (layer B.Fab) (width 0.1))
    (fp_line (start 31.01 1.8) (end 27.41 1.8) (layer B.CrtYd) (width 0.05))
    (fp_line (start 27.94 0.635) (end 28.575 1.27) (layer B.Fab) (width 0.1))
    (fp_line (start 27.88 -1.27) (end 30.54 -1.27) (layer B.SilkS) (width 0.12))
    (fp_line (start 27.88 -3.87) (end 30.54 -3.87) (layer B.SilkS) (width 0.12))
    (fp_line (start 27.88 -1.27) (end 27.88 -3.87) (layer B.SilkS) (width 0.12))
    (fp_line (start 27.88 1.33) (end 29.21 1.33) (layer B.SilkS) (width 0.12))
    (fp_line (start 28.575 1.27) (end 30.48 1.27) (layer B.Fab) (width 0.1))
    (fp_line (start 27.41 1.8) (end 27.41 -4.35) (layer B.CrtYd) (width 0.05))
    (fp_line (start 27.41 -4.35) (end 31.01 -4.35) (layer B.CrtYd) (width 0.05))
    (fp_line (start 27.88 0) (end 27.88 1.33) (layer B.SilkS) (width 0.12))
    (fp_line (start 30.48 1.27) (end 30.48 -3.81) (layer B.Fab) (width 0.1))
    (fp_line (start 30.54 -1.27) (end 30.54 -3.87) (layer B.SilkS) (width 0.12))
    (fp_line (start 31.01 -4.35) (end 31.01 1.8) (layer B.CrtYd) (width 0.05))
    (fp_line (start 30.48 -6.35) (end 30.48 -5.08) (layer B.SilkS) (width 0.12))
    (fp_line (start -1.27 -6.35) (end 30.48 -6.35) (layer B.SilkS) (width 0.12))
    (fp_line (start -1.33 -3.87) (end -1.27 -6.35) (layer B.SilkS) (width 0.12))
    (fp_line (start 30.48 3.81) (end 30.48 -5.08) (layer B.SilkS) (width 0.12))
    (fp_line (start -1.27 3.81) (end 30.48 3.81) (layer B.SilkS) (width 0.12))
    (fp_line (start -1.27 1.27) (end -1.27 3.81) (layer B.SilkS) (width 0.12))
    (fp_line (start -0.635 1.27) (end 1.27 1.27) (layer B.Fab) (width 0.1))
    (fp_line (start 1.27 1.27) (end 1.27 -3.81) (layer B.Fab) (width 0.1))
    (fp_line (start 1.27 -3.81) (end -1.27 -3.81) (layer B.Fab) (width 0.1))
    (fp_line (start -1.27 -3.81) (end -1.27 0.635) (layer B.Fab) (width 0.1))
    (fp_line (start -1.27 0.635) (end -0.635 1.27) (layer B.Fab) (width 0.1))
    (fp_line (start -1.33 -3.87) (end 1.33 -3.87) (layer B.SilkS) (width 0.12))
    (fp_line (start -1.33 -1.27) (end -1.33 -3.87) (layer B.SilkS) (width 0.12))
    (fp_line (start 1.33 -1.27) (end 1.33 -3.87) (layer B.SilkS) (width 0.12))
    (fp_line (start -1.33 -1.27) (end 1.33 -1.27) (layer B.SilkS) (width 0.12))
    (fp_line (start -1.33 0) (end -1.33 1.33) (layer B.SilkS) (width 0.12))
    (fp_line (start -1.33 1.33) (end 0 1.33) (layer B.SilkS) (width 0.12))
    (fp_line (start -1.8 1.8) (end -1.8 -4.35) (layer B.CrtYd) (width 0.05))
    (fp_line (start -1.8 -4.35) (end 1.8 -4.35) (layer B.CrtYd) (width 0.05))
    (fp_line (start 1.8 -4.35) (end 1.8 1.8) (layer B.CrtYd) (width 0.05))
    (fp_line (start 1.8 1.8) (end -1.8 1.8) (layer B.CrtYd) (width 0.05))
    (fp_text user input (at 31.75 -1.27 -90) (layer B.Fab)
      (effects (font (size 1 1) (thickness 0.15)) (justify mirror))
    )
    (fp_text user output (at -2.54 -1.27 -90) (layer B.Fab)
      (effects (font (size 1 1) (thickness 0.15)) (justify mirror))
    )
    (pad 3 thru_hole rect (at 29.21 0) (size 1.7 1.7) (drill 1) (layers *.Cu *.Mask)
      (net 30 VCC))
    (pad 4 thru_hole oval (at 29.21 -2.54) (size 1.7 1.7) (drill 1) (layers *.Cu *.Mask)
      (net 28 GND))
    (pad 2 thru_hole oval (at 0 -2.54) (size 1.7 1.7) (drill 1) (layers *.Cu *.Mask)
      (net 28 GND))
    (pad 1 thru_hole rect (at 0 0) (size 1.7 1.7) (drill 1) (layers *.Cu *.Mask)
      (net 34 +3V3))
    (model ${KISYS3DMOD}/Connector_PinHeader_2.54mm.3dshapes/PinHeader_1x02_P2.54mm_Vertical.wrl
      (at (xyz 0 0 0))
      (scale (xyz 1 1 1))
      (rotate (xyz 0 0 0))
    )
  )

  (module Connector_PinSocket_2.54mm:PinSocket_1x02_P2.54mm_Vertical (layer B.Cu) (tedit 5A19A420) (tstamp 61ECBE22)
    (at 33.528 19.304)
    (descr "Through hole straight socket strip, 1x02, 2.54mm pitch, single row (from Kicad 4.0.7), script generated")
    (tags "Through hole socket strip THT 1x02 2.54mm single row")
    (path /61F1FA10)
    (fp_text reference J19 (at 0 2.77) (layer B.SilkS)
      (effects (font (size 1 1) (thickness 0.15)) (justify mirror))
    )
    (fp_text value in_Vcc (at 0 -5.31) (layer B.Fab)
      (effects (font (size 1 1) (thickness 0.15)) (justify mirror))
    )
    (fp_line (start -1.8 -4.3) (end -1.8 1.8) (layer B.CrtYd) (width 0.05))
    (fp_line (start 1.75 -4.3) (end -1.8 -4.3) (layer B.CrtYd) (width 0.05))
    (fp_line (start 1.75 1.8) (end 1.75 -4.3) (layer B.CrtYd) (width 0.05))
    (fp_line (start -1.8 1.8) (end 1.75 1.8) (layer B.CrtYd) (width 0.05))
    (fp_line (start 0 1.33) (end 1.33 1.33) (layer B.SilkS) (width 0.12))
    (fp_line (start 1.33 1.33) (end 1.33 0) (layer B.SilkS) (width 0.12))
    (fp_line (start 1.33 -1.27) (end 1.33 -3.87) (layer B.SilkS) (width 0.12))
    (fp_line (start -1.33 -3.87) (end 1.33 -3.87) (layer B.SilkS) (width 0.12))
    (fp_line (start -1.33 -1.27) (end -1.33 -3.87) (layer B.SilkS) (width 0.12))
    (fp_line (start -1.33 -1.27) (end 1.33 -1.27) (layer B.SilkS) (width 0.12))
    (fp_line (start -1.27 -3.81) (end -1.27 1.27) (layer B.Fab) (width 0.1))
    (fp_line (start 1.27 -3.81) (end -1.27 -3.81) (layer B.Fab) (width 0.1))
    (fp_line (start 1.27 0.635) (end 1.27 -3.81) (layer B.Fab) (width 0.1))
    (fp_line (start 0.635 1.27) (end 1.27 0.635) (layer B.Fab) (width 0.1))
    (fp_line (start -1.27 1.27) (end 0.635 1.27) (layer B.Fab) (width 0.1))
    (fp_text user %R (at 0 -1.27 -90) (layer B.Fab)
      (effects (font (size 1 1) (thickness 0.15)) (justify mirror))
    )
    (pad 2 thru_hole oval (at 0 -2.54) (size 1.7 1.7) (drill 1) (layers *.Cu *.Mask)
      (net 28 GND))
    (pad 1 thru_hole rect (at 0 0) (size 1.7 1.7) (drill 1) (layers *.Cu *.Mask)
      (net 34 +3V3))
    (model ${KISYS3DMOD}/Connector_PinSocket_2.54mm.3dshapes/PinSocket_1x02_P2.54mm_Vertical.wrl
      (at (xyz 0 0 0))
      (scale (xyz 1 1 1))
      (rotate (xyz 0 0 0))
    )
  )

  (module Connector_PinSocket_2.54mm:PinSocket_1x02_P2.54mm_Vertical (layer B.Cu) (tedit 5A19A420) (tstamp 61ED2488)
    (at 53.848 76.2)
    (descr "Through hole straight socket strip, 1x02, 2.54mm pitch, single row (from Kicad 4.0.7), script generated")
    (tags "Through hole socket strip THT 1x02 2.54mm single row")
    (path /61F1DA05)
    (fp_text reference J18 (at 0 2.77) (layer B.SilkS)
      (effects (font (size 1 1) (thickness 0.15)) (justify mirror))
    )
    (fp_text value in_Vcc (at 0 -5.31) (layer B.Fab)
      (effects (font (size 1 1) (thickness 0.15)) (justify mirror))
    )
    (fp_line (start -1.8 -4.3) (end -1.8 1.8) (layer B.CrtYd) (width 0.05))
    (fp_line (start 1.75 -4.3) (end -1.8 -4.3) (layer B.CrtYd) (width 0.05))
    (fp_line (start 1.75 1.8) (end 1.75 -4.3) (layer B.CrtYd) (width 0.05))
    (fp_line (start -1.8 1.8) (end 1.75 1.8) (layer B.CrtYd) (width 0.05))
    (fp_line (start 0 1.33) (end 1.33 1.33) (layer B.SilkS) (width 0.12))
    (fp_line (start 1.33 1.33) (end 1.33 0) (layer B.SilkS) (width 0.12))
    (fp_line (start 1.33 -1.27) (end 1.33 -3.87) (layer B.SilkS) (width 0.12))
    (fp_line (start -1.33 -3.87) (end 1.33 -3.87) (layer B.SilkS) (width 0.12))
    (fp_line (start -1.33 -1.27) (end -1.33 -3.87) (layer B.SilkS) (width 0.12))
    (fp_line (start -1.33 -1.27) (end 1.33 -1.27) (layer B.SilkS) (width 0.12))
    (fp_line (start -1.27 -3.81) (end -1.27 1.27) (layer B.Fab) (width 0.1))
    (fp_line (start 1.27 -3.81) (end -1.27 -3.81) (layer B.Fab) (width 0.1))
    (fp_line (start 1.27 0.635) (end 1.27 -3.81) (layer B.Fab) (width 0.1))
    (fp_line (start 0.635 1.27) (end 1.27 0.635) (layer B.Fab) (width 0.1))
    (fp_line (start -1.27 1.27) (end 0.635 1.27) (layer B.Fab) (width 0.1))
    (fp_text user %R (at 0 -1.27) (layer B.Fab)
      (effects (font (size 1 1) (thickness 0.15)) (justify mirror))
    )
    (pad 2 thru_hole oval (at 0 -2.54) (size 1.7 1.7) (drill 1) (layers *.Cu *.Mask)
      (net 28 GND))
    (pad 1 thru_hole rect (at 0 0) (size 1.7 1.7) (drill 1) (layers *.Cu *.Mask)
      (net 34 +3V3))
    (model ${KISYS3DMOD}/Connector_PinSocket_2.54mm.3dshapes/PinSocket_1x02_P2.54mm_Vertical.wrl
      (at (xyz 0 0 0))
      (scale (xyz 1 1 1))
      (rotate (xyz 0 0 0))
    )
  )

  (module Connector_PinSocket_2.54mm:PinSocket_1x02_P2.54mm_Vertical (layer B.Cu) (tedit 5A19A420) (tstamp 61ECBDF6)
    (at 29.972 76.2)
    (descr "Through hole straight socket strip, 1x02, 2.54mm pitch, single row (from Kicad 4.0.7), script generated")
    (tags "Through hole socket strip THT 1x02 2.54mm single row")
    (path /61F12510)
    (fp_text reference J17 (at 0 2.77) (layer B.SilkS)
      (effects (font (size 1 1) (thickness 0.15)) (justify mirror))
    )
    (fp_text value 3.3v_switch_fl (at 0 -5.31) (layer B.Fab)
      (effects (font (size 1 1) (thickness 0.15)) (justify mirror))
    )
    (fp_line (start -1.8 -4.3) (end -1.8 1.8) (layer B.CrtYd) (width 0.05))
    (fp_line (start 1.75 -4.3) (end -1.8 -4.3) (layer B.CrtYd) (width 0.05))
    (fp_line (start 1.75 1.8) (end 1.75 -4.3) (layer B.CrtYd) (width 0.05))
    (fp_line (start -1.8 1.8) (end 1.75 1.8) (layer B.CrtYd) (width 0.05))
    (fp_line (start 0 1.33) (end 1.33 1.33) (layer B.SilkS) (width 0.12))
    (fp_line (start 1.33 1.33) (end 1.33 0) (layer B.SilkS) (width 0.12))
    (fp_line (start 1.33 -1.27) (end 1.33 -3.87) (layer B.SilkS) (width 0.12))
    (fp_line (start -1.33 -3.87) (end 1.33 -3.87) (layer B.SilkS) (width 0.12))
    (fp_line (start -1.33 -1.27) (end -1.33 -3.87) (layer B.SilkS) (width 0.12))
    (fp_line (start -1.33 -1.27) (end 1.33 -1.27) (layer B.SilkS) (width 0.12))
    (fp_line (start -1.27 -3.81) (end -1.27 1.27) (layer B.Fab) (width 0.1))
    (fp_line (start 1.27 -3.81) (end -1.27 -3.81) (layer B.Fab) (width 0.1))
    (fp_line (start 1.27 0.635) (end 1.27 -3.81) (layer B.Fab) (width 0.1))
    (fp_line (start 0.635 1.27) (end 1.27 0.635) (layer B.Fab) (width 0.1))
    (fp_line (start -1.27 1.27) (end 0.635 1.27) (layer B.Fab) (width 0.1))
    (fp_text user %R (at 0 -1.27 -90) (layer B.Fab)
      (effects (font (size 1 1) (thickness 0.15)) (justify mirror))
    )
    (pad 2 thru_hole oval (at 0 -2.54) (size 1.7 1.7) (drill 1) (layers *.Cu *.Mask)
      (net 28 GND))
    (pad 1 thru_hole rect (at 0 0) (size 1.7 1.7) (drill 1) (layers *.Cu *.Mask)
      (net 34 +3V3))
    (model ${KISYS3DMOD}/Connector_PinSocket_2.54mm.3dshapes/PinSocket_1x02_P2.54mm_Vertical.wrl
      (at (xyz 0 0 0))
      (scale (xyz 1 1 1))
      (rotate (xyz 0 0 0))
    )
  )

  (module B2P-VH:SHDR2W114P0X396_1X2_786X850X940P (layer B.Cu) (tedit 616C0AFF) (tstamp 61ED25B0)
    (at 23.876 17.78 180)
    (descr "B2P-VH(LF)(SN)")
    (tags Connector)
    (path /61F82AEF)
    (fp_text reference J15 (at 0 0) (layer B.SilkS)
      (effects (font (size 1.27 1.27) (thickness 0.254)) (justify mirror))
    )
    (fp_text value "power servos" (at 0 0) (layer B.SilkS) hide
      (effects (font (size 1.27 1.27) (thickness 0.254)) (justify mirror))
    )
    (fp_line (start -1.95 4.25) (end -1.95 0) (layer B.SilkS) (width 0.2))
    (fp_line (start 5.91 4.25) (end -1.95 4.25) (layer B.SilkS) (width 0.2))
    (fp_line (start 5.91 -4.25) (end 5.91 4.25) (layer B.SilkS) (width 0.2))
    (fp_line (start 0 -4.25) (end 5.91 -4.25) (layer B.SilkS) (width 0.2))
    (fp_line (start 5.91 -4.25) (end -1.95 -4.25) (layer Dwgs.User) (width 0.1))
    (fp_line (start 5.91 4.25) (end 5.91 -4.25) (layer Dwgs.User) (width 0.1))
    (fp_line (start -1.95 4.25) (end 5.91 4.25) (layer Dwgs.User) (width 0.1))
    (fp_line (start -1.95 -4.25) (end -1.95 4.25) (layer Dwgs.User) (width 0.1))
    (fp_line (start 6.16 -4.5) (end -2.2 -4.5) (layer Dwgs.User) (width 0.05))
    (fp_line (start 6.16 4.5) (end 6.16 -4.5) (layer Dwgs.User) (width 0.05))
    (fp_line (start -2.2 4.5) (end 6.16 4.5) (layer Dwgs.User) (width 0.05))
    (fp_line (start -2.2 -4.5) (end -2.2 4.5) (layer Dwgs.User) (width 0.05))
    (pad 2 thru_hole circle (at 3.96 0 90) (size 2.7 2.7) (drill 1.8) (layers *.Cu *.Mask B.SilkS)
      (net 28 GND))
    (pad 1 thru_hole rect (at 0 0 90) (size 2.7 2.7) (drill 1.8) (layers *.Cu *.Mask B.SilkS)
      (net 33 +7.5V))
  )

  (module B2P-VH:SHDR2W114P0X396_1X2_786X850X940P (layer B.Cu) (tedit 616C0AFF) (tstamp 61EE3F55)
    (at 66.04 65.024 90)
    (descr "B2P-VH(LF)(SN)")
    (tags Connector)
    (path /61F324BD)
    (fp_text reference J14 (at 0 0 270) (layer B.SilkS)
      (effects (font (size 1.27 1.27) (thickness 0.254)) (justify mirror))
    )
    (fp_text value power_battery (at 0 0 270) (layer B.SilkS) hide
      (effects (font (size 1.27 1.27) (thickness 0.254)) (justify mirror))
    )
    (fp_line (start -1.95 4.25) (end -1.95 0) (layer B.SilkS) (width 0.2))
    (fp_line (start 5.91 4.25) (end -1.95 4.25) (layer B.SilkS) (width 0.2))
    (fp_line (start 5.91 -4.25) (end 5.91 4.25) (layer B.SilkS) (width 0.2))
    (fp_line (start 0 -4.25) (end 5.91 -4.25) (layer B.SilkS) (width 0.2))
    (fp_line (start 5.91 -4.25) (end -1.95 -4.25) (layer Dwgs.User) (width 0.1))
    (fp_line (start 5.91 4.25) (end 5.91 -4.25) (layer Dwgs.User) (width 0.1))
    (fp_line (start -1.95 4.25) (end 5.91 4.25) (layer Dwgs.User) (width 0.1))
    (fp_line (start -1.95 -4.25) (end -1.95 4.25) (layer Dwgs.User) (width 0.1))
    (fp_line (start 6.16 -4.5) (end -2.2 -4.5) (layer Dwgs.User) (width 0.05))
    (fp_line (start 6.16 4.5) (end 6.16 -4.5) (layer Dwgs.User) (width 0.05))
    (fp_line (start -2.2 4.5) (end 6.16 4.5) (layer Dwgs.User) (width 0.05))
    (fp_line (start -2.2 -4.5) (end -2.2 4.5) (layer Dwgs.User) (width 0.05))
    (pad 2 thru_hole circle (at 3.96 0) (size 2.7 2.7) (drill 1.8) (layers *.Cu *.Mask B.SilkS)
      (net 28 GND))
    (pad 1 thru_hole rect (at 0 0) (size 2.7 2.7) (drill 1.8) (layers *.Cu *.Mask B.SilkS)
      (net 30 VCC))
  )

  (module Connector_PinSocket_2.54mm:PinSocket_1x04_P2.54mm_Vertical (layer B.Cu) (tedit 5A19A429) (tstamp 61ECB287)
    (at 29.972 64.516 270)
    (descr "Through hole straight socket strip, 1x04, 2.54mm pitch, single row (from Kicad 4.0.7), script generated")
    (tags "Through hole socket strip THT 1x04 2.54mm single row")
    (path /61F0E593)
    (fp_text reference J11 (at 0 2.77 270) (layer B.SilkS)
      (effects (font (size 1 1) (thickness 0.15)) (justify mirror))
    )
    (fp_text value conn_leg_switch (at 0 -10.39 270) (layer B.Fab)
      (effects (font (size 1 1) (thickness 0.15)) (justify mirror))
    )
    (fp_line (start -1.27 1.27) (end 0.635 1.27) (layer B.Fab) (width 0.1))
    (fp_line (start 0.635 1.27) (end 1.27 0.635) (layer B.Fab) (width 0.1))
    (fp_line (start 1.27 0.635) (end 1.27 -8.89) (layer B.Fab) (width 0.1))
    (fp_line (start 1.27 -8.89) (end -1.27 -8.89) (layer B.Fab) (width 0.1))
    (fp_line (start -1.27 -8.89) (end -1.27 1.27) (layer B.Fab) (width 0.1))
    (fp_line (start -1.33 -1.27) (end 1.33 -1.27) (layer B.SilkS) (width 0.12))
    (fp_line (start -1.33 -1.27) (end -1.33 -8.95) (layer B.SilkS) (width 0.12))
    (fp_line (start -1.33 -8.95) (end 1.33 -8.95) (layer B.SilkS) (width 0.12))
    (fp_line (start 1.33 -1.27) (end 1.33 -8.95) (layer B.SilkS) (width 0.12))
    (fp_line (start 1.33 1.33) (end 1.33 0) (layer B.SilkS) (width 0.12))
    (fp_line (start 0 1.33) (end 1.33 1.33) (layer B.SilkS) (width 0.12))
    (fp_line (start -1.8 1.8) (end 1.75 1.8) (layer B.CrtYd) (width 0.05))
    (fp_line (start 1.75 1.8) (end 1.75 -9.4) (layer B.CrtYd) (width 0.05))
    (fp_line (start 1.75 -9.4) (end -1.8 -9.4) (layer B.CrtYd) (width 0.05))
    (fp_line (start -1.8 -9.4) (end -1.8 1.8) (layer B.CrtYd) (width 0.05))
    (fp_text user %R (at 0 -3.81) (layer B.Fab)
      (effects (font (size 1 1) (thickness 0.15)) (justify mirror))
    )
    (pad 4 thru_hole oval (at 0 -7.62 270) (size 1.7 1.7) (drill 1) (layers *.Cu *.Mask)
      (net 6 "Net-(IC1-Pad27)"))
    (pad 3 thru_hole oval (at 0 -5.08 270) (size 1.7 1.7) (drill 1) (layers *.Cu *.Mask)
      (net 5 "Net-(IC1-Pad28)"))
    (pad 2 thru_hole oval (at 0 -2.54 270) (size 1.7 1.7) (drill 1) (layers *.Cu *.Mask)
      (net 4 "Net-(IC1-Pad29)"))
    (pad 1 thru_hole rect (at 0 0 270) (size 1.7 1.7) (drill 1) (layers *.Cu *.Mask)
      (net 3 "Net-(IC1-Pad30)"))
    (model ${KISYS3DMOD}/Connector_PinSocket_2.54mm.3dshapes/PinSocket_1x04_P2.54mm_Vertical.wrl
      (at (xyz 0 0 0))
      (scale (xyz 1 1 1))
      (rotate (xyz 0 0 0))
    )
  )

  (module B2P-VH:SHDR2W114P0X396_1X2_786X850X940P (layer B.Cu) (tedit 616C0AFF) (tstamp 61ED202D)
    (at 17.78 74.676)
    (descr "B2P-VH(LF)(SN)")
    (tags Connector)
    (path /61786A4D)
    (fp_text reference J8 (at 0 0) (layer B.SilkS)
      (effects (font (size 1.27 1.27) (thickness 0.254)) (justify mirror))
    )
    (fp_text value "power br" (at 0 0) (layer B.SilkS) hide
      (effects (font (size 1.27 1.27) (thickness 0.254)) (justify mirror))
    )
    (fp_line (start -1.95 4.25) (end -1.95 0) (layer B.SilkS) (width 0.2))
    (fp_line (start 5.91 4.25) (end -1.95 4.25) (layer B.SilkS) (width 0.2))
    (fp_line (start 5.91 -4.25) (end 5.91 4.25) (layer B.SilkS) (width 0.2))
    (fp_line (start 0 -4.25) (end 5.91 -4.25) (layer B.SilkS) (width 0.2))
    (fp_line (start 5.91 -4.25) (end -1.95 -4.25) (layer Dwgs.User) (width 0.1))
    (fp_line (start 5.91 4.25) (end 5.91 -4.25) (layer Dwgs.User) (width 0.1))
    (fp_line (start -1.95 4.25) (end 5.91 4.25) (layer Dwgs.User) (width 0.1))
    (fp_line (start -1.95 -4.25) (end -1.95 4.25) (layer Dwgs.User) (width 0.1))
    (fp_line (start 6.16 -4.5) (end -2.2 -4.5) (layer Dwgs.User) (width 0.05))
    (fp_line (start 6.16 4.5) (end 6.16 -4.5) (layer Dwgs.User) (width 0.05))
    (fp_line (start -2.2 4.5) (end 6.16 4.5) (layer Dwgs.User) (width 0.05))
    (fp_line (start -2.2 -4.5) (end -2.2 4.5) (layer Dwgs.User) (width 0.05))
    (pad 2 thru_hole circle (at 3.96 0 270) (size 2.7 2.7) (drill 1.8) (layers *.Cu *.Mask B.SilkS)
      (net 28 GND))
    (pad 1 thru_hole rect (at 0 0 270) (size 2.7 2.7) (drill 1.8) (layers *.Cu *.Mask B.SilkS)
      (net 33 +7.5V))
  )

  (module Connector_PinHeader_2.54mm:PinHeader_1x03_P2.54mm_Vertical (layer B.Cu) (tedit 59FED5CC) (tstamp 61ECA040)
    (at 33.528 31.496 270)
    (descr "Through hole straight pin header, 1x03, 2.54mm pitch, single row")
    (tags "Through hole pin header THT 1x03 2.54mm single row")
    (path /616C272B)
    (fp_text reference J7 (at 0 2.33 270) (layer B.SilkS)
      (effects (font (size 1 1) (thickness 0.15)) (justify mirror))
    )
    (fp_text value leg_bl (at 0 -7.41 270) (layer B.Fab)
      (effects (font (size 1 1) (thickness 0.15)) (justify mirror))
    )
    (fp_line (start -0.635 1.27) (end 1.27 1.27) (layer B.Fab) (width 0.1))
    (fp_line (start 1.27 1.27) (end 1.27 -6.35) (layer B.Fab) (width 0.1))
    (fp_line (start 1.27 -6.35) (end -1.27 -6.35) (layer B.Fab) (width 0.1))
    (fp_line (start -1.27 -6.35) (end -1.27 0.635) (layer B.Fab) (width 0.1))
    (fp_line (start -1.27 0.635) (end -0.635 1.27) (layer B.Fab) (width 0.1))
    (fp_line (start -1.33 -6.41) (end 1.33 -6.41) (layer B.SilkS) (width 0.12))
    (fp_line (start -1.33 -1.27) (end -1.33 -6.41) (layer B.SilkS) (width 0.12))
    (fp_line (start 1.33 -1.27) (end 1.33 -6.41) (layer B.SilkS) (width 0.12))
    (fp_line (start -1.33 -1.27) (end 1.33 -1.27) (layer B.SilkS) (width 0.12))
    (fp_line (start -1.33 0) (end -1.33 1.33) (layer B.SilkS) (width 0.12))
    (fp_line (start -1.33 1.33) (end 0 1.33) (layer B.SilkS) (width 0.12))
    (fp_line (start -1.8 1.8) (end -1.8 -6.85) (layer B.CrtYd) (width 0.05))
    (fp_line (start -1.8 -6.85) (end 1.8 -6.85) (layer B.CrtYd) (width 0.05))
    (fp_line (start 1.8 -6.85) (end 1.8 1.8) (layer B.CrtYd) (width 0.05))
    (fp_line (start 1.8 1.8) (end -1.8 1.8) (layer B.CrtYd) (width 0.05))
    (fp_text user %R (at 0 -2.54) (layer B.Fab)
      (effects (font (size 1 1) (thickness 0.15)) (justify mirror))
    )
    (pad 3 thru_hole oval (at 0 -5.08 270) (size 1.7 1.7) (drill 1) (layers *.Cu *.Mask)
      (net 22 "Net-(IC1-Pad7)"))
    (pad 2 thru_hole oval (at 0 -2.54 270) (size 1.7 1.7) (drill 1) (layers *.Cu *.Mask)
      (net 23 "Net-(IC1-Pad6)"))
    (pad 1 thru_hole rect (at 0 0 270) (size 1.7 1.7) (drill 1) (layers *.Cu *.Mask)
      (net 24 "Net-(IC1-Pad5)"))
    (model ${KISYS3DMOD}/Connector_PinHeader_2.54mm.3dshapes/PinHeader_1x03_P2.54mm_Vertical.wrl
      (at (xyz 0 0 0))
      (scale (xyz 1 1 1))
      (rotate (xyz 0 0 0))
    )
  )

  (module Connector_PinHeader_2.54mm:PinHeader_1x03_P2.54mm_Vertical (layer B.Cu) (tedit 59FED5CC) (tstamp 61EC9FFB)
    (at 20.828 31.496 270)
    (descr "Through hole straight pin header, 1x03, 2.54mm pitch, single row")
    (tags "Through hole pin header THT 1x03 2.54mm single row")
    (path /616C112F)
    (fp_text reference J4 (at 0 2.33 270) (layer B.SilkS)
      (effects (font (size 1 1) (thickness 0.15)) (justify mirror))
    )
    (fp_text value leg_fl (at 0 -7.41 270) (layer B.Fab)
      (effects (font (size 1 1) (thickness 0.15)) (justify mirror))
    )
    (fp_line (start -0.635 1.27) (end 1.27 1.27) (layer B.Fab) (width 0.1))
    (fp_line (start 1.27 1.27) (end 1.27 -6.35) (layer B.Fab) (width 0.1))
    (fp_line (start 1.27 -6.35) (end -1.27 -6.35) (layer B.Fab) (width 0.1))
    (fp_line (start -1.27 -6.35) (end -1.27 0.635) (layer B.Fab) (width 0.1))
    (fp_line (start -1.27 0.635) (end -0.635 1.27) (layer B.Fab) (width 0.1))
    (fp_line (start -1.33 -6.41) (end 1.33 -6.41) (layer B.SilkS) (width 0.12))
    (fp_line (start -1.33 -1.27) (end -1.33 -6.41) (layer B.SilkS) (width 0.12))
    (fp_line (start 1.33 -1.27) (end 1.33 -6.41) (layer B.SilkS) (width 0.12))
    (fp_line (start -1.33 -1.27) (end 1.33 -1.27) (layer B.SilkS) (width 0.12))
    (fp_line (start -1.33 0) (end -1.33 1.33) (layer B.SilkS) (width 0.12))
    (fp_line (start -1.33 1.33) (end 0 1.33) (layer B.SilkS) (width 0.12))
    (fp_line (start -1.8 1.8) (end -1.8 -6.85) (layer B.CrtYd) (width 0.05))
    (fp_line (start -1.8 -6.85) (end 1.8 -6.85) (layer B.CrtYd) (width 0.05))
    (fp_line (start 1.8 -6.85) (end 1.8 1.8) (layer B.CrtYd) (width 0.05))
    (fp_line (start 1.8 1.8) (end -1.8 1.8) (layer B.CrtYd) (width 0.05))
    (fp_text user %R (at 0 -2.54) (layer B.Fab)
      (effects (font (size 1 1) (thickness 0.15)) (justify mirror))
    )
    (pad 3 thru_hole oval (at 0 -5.08 270) (size 1.7 1.7) (drill 1) (layers *.Cu *.Mask)
      (net 25 "Net-(IC1-Pad4)"))
    (pad 2 thru_hole oval (at 0 -2.54 270) (size 1.7 1.7) (drill 1) (layers *.Cu *.Mask)
      (net 26 "Net-(IC1-Pad3)"))
    (pad 1 thru_hole rect (at 0 0 270) (size 1.7 1.7) (drill 1) (layers *.Cu *.Mask)
      (net 27 "Net-(IC1-Pad2)"))
    (model ${KISYS3DMOD}/Connector_PinHeader_2.54mm.3dshapes/PinHeader_1x03_P2.54mm_Vertical.wrl
      (at (xyz 0 0 0))
      (scale (xyz 1 1 1))
      (rotate (xyz 0 0 0))
    )
  )

  (module B2P-VH:SHDR2W114P0X396_1X2_786X850X940P (layer B.Cu) (tedit 616C0AFF) (tstamp 61EC9FE4)
    (at 46.228 74.676 180)
    (descr "B2P-VH(LF)(SN)")
    (tags Connector)
    (path /61770EFF)
    (fp_text reference J3 (at 0 0) (layer B.SilkS)
      (effects (font (size 1.27 1.27) (thickness 0.254)) (justify mirror))
    )
    (fp_text value "power fl" (at 0 0) (layer B.SilkS) hide
      (effects (font (size 1.27 1.27) (thickness 0.254)) (justify mirror))
    )
    (fp_line (start -1.95 4.25) (end -1.95 0) (layer B.SilkS) (width 0.2))
    (fp_line (start 5.91 4.25) (end -1.95 4.25) (layer B.SilkS) (width 0.2))
    (fp_line (start 5.91 -4.25) (end 5.91 4.25) (layer B.SilkS) (width 0.2))
    (fp_line (start 0 -4.25) (end 5.91 -4.25) (layer B.SilkS) (width 0.2))
    (fp_line (start 5.91 -4.25) (end -1.95 -4.25) (layer Dwgs.User) (width 0.1))
    (fp_line (start 5.91 4.25) (end 5.91 -4.25) (layer Dwgs.User) (width 0.1))
    (fp_line (start -1.95 4.25) (end 5.91 4.25) (layer Dwgs.User) (width 0.1))
    (fp_line (start -1.95 -4.25) (end -1.95 4.25) (layer Dwgs.User) (width 0.1))
    (fp_line (start 6.16 -4.5) (end -2.2 -4.5) (layer Dwgs.User) (width 0.05))
    (fp_line (start 6.16 4.5) (end 6.16 -4.5) (layer Dwgs.User) (width 0.05))
    (fp_line (start -2.2 4.5) (end 6.16 4.5) (layer Dwgs.User) (width 0.05))
    (fp_line (start -2.2 -4.5) (end -2.2 4.5) (layer Dwgs.User) (width 0.05))
    (pad 2 thru_hole circle (at 3.96 0 90) (size 2.7 2.7) (drill 1.8) (layers *.Cu *.Mask B.SilkS)
      (net 28 GND))
    (pad 1 thru_hole rect (at 0 0 90) (size 2.7 2.7) (drill 1.8) (layers *.Cu *.Mask B.SilkS)
      (net 33 +7.5V))
  )

  (module B2P-VH:SHDR2W114P0X396_1X2_786X850X940P (layer B.Cu) (tedit 616C0AFF) (tstamp 61EE3F19)
    (at 91.44 65.024 90)
    (descr "B2P-VH(LF)(SN)")
    (tags Connector)
    (path /61791BF5)
    (fp_text reference J2 (at 0 0 270) (layer B.SilkS)
      (effects (font (size 1.27 1.27) (thickness 0.254)) (justify mirror))
    )
    (fp_text value "power fr" (at 0 0 270) (layer B.SilkS) hide
      (effects (font (size 1.27 1.27) (thickness 0.254)) (justify mirror))
    )
    (fp_line (start -1.95 4.25) (end -1.95 0) (layer B.SilkS) (width 0.2))
    (fp_line (start 5.91 4.25) (end -1.95 4.25) (layer B.SilkS) (width 0.2))
    (fp_line (start 5.91 -4.25) (end 5.91 4.25) (layer B.SilkS) (width 0.2))
    (fp_line (start 0 -4.25) (end 5.91 -4.25) (layer B.SilkS) (width 0.2))
    (fp_line (start 5.91 -4.25) (end -1.95 -4.25) (layer Dwgs.User) (width 0.1))
    (fp_line (start 5.91 4.25) (end 5.91 -4.25) (layer Dwgs.User) (width 0.1))
    (fp_line (start -1.95 4.25) (end 5.91 4.25) (layer Dwgs.User) (width 0.1))
    (fp_line (start -1.95 -4.25) (end -1.95 4.25) (layer Dwgs.User) (width 0.1))
    (fp_line (start 6.16 -4.5) (end -2.2 -4.5) (layer Dwgs.User) (width 0.05))
    (fp_line (start 6.16 4.5) (end 6.16 -4.5) (layer Dwgs.User) (width 0.05))
    (fp_line (start -2.2 4.5) (end 6.16 4.5) (layer Dwgs.User) (width 0.05))
    (fp_line (start -2.2 -4.5) (end -2.2 4.5) (layer Dwgs.User) (width 0.05))
    (pad 2 thru_hole circle (at 3.96 0) (size 2.7 2.7) (drill 1.8) (layers *.Cu *.Mask B.SilkS)
      (net 28 GND))
    (pad 1 thru_hole rect (at 0 0) (size 2.7 2.7) (drill 1.8) (layers *.Cu *.Mask B.SilkS)
      (net 33 +7.5V))
  )

  (module Connector_PinHeader_2.54mm:PinHeader_1x04_P2.54mm_Vertical (layer B.Cu) (tedit 59FED5CC) (tstamp 61EC9FC0)
    (at 36.068 46.736 180)
    (descr "Through hole straight pin header, 1x04, 2.54mm pitch, single row")
    (tags "Through hole pin header THT 1x04 2.54mm single row")
    (path /616D6F77)
    (fp_text reference J1 (at 0 2.33) (layer B.SilkS)
      (effects (font (size 1 1) (thickness 0.15)) (justify mirror))
    )
    (fp_text value imu_sensor (at 0 -9.95) (layer B.Fab)
      (effects (font (size 1 1) (thickness 0.15)) (justify mirror))
    )
    (fp_line (start -0.635 1.27) (end 1.27 1.27) (layer B.Fab) (width 0.1))
    (fp_line (start 1.27 1.27) (end 1.27 -8.89) (layer B.Fab) (width 0.1))
    (fp_line (start 1.27 -8.89) (end -1.27 -8.89) (layer B.Fab) (width 0.1))
    (fp_line (start -1.27 -8.89) (end -1.27 0.635) (layer B.Fab) (width 0.1))
    (fp_line (start -1.27 0.635) (end -0.635 1.27) (layer B.Fab) (width 0.1))
    (fp_line (start -1.33 -8.95) (end 1.33 -8.95) (layer B.SilkS) (width 0.12))
    (fp_line (start -1.33 -1.27) (end -1.33 -8.95) (layer B.SilkS) (width 0.12))
    (fp_line (start 1.33 -1.27) (end 1.33 -8.95) (layer B.SilkS) (width 0.12))
    (fp_line (start -1.33 -1.27) (end 1.33 -1.27) (layer B.SilkS) (width 0.12))
    (fp_line (start -1.33 0) (end -1.33 1.33) (layer B.SilkS) (width 0.12))
    (fp_line (start -1.33 1.33) (end 0 1.33) (layer B.SilkS) (width 0.12))
    (fp_line (start -1.8 1.8) (end -1.8 -9.4) (layer B.CrtYd) (width 0.05))
    (fp_line (start -1.8 -9.4) (end 1.8 -9.4) (layer B.CrtYd) (width 0.05))
    (fp_line (start 1.8 -9.4) (end 1.8 1.8) (layer B.CrtYd) (width 0.05))
    (fp_line (start 1.8 1.8) (end -1.8 1.8) (layer B.CrtYd) (width 0.05))
    (fp_text user %R (at 0 -3.81 270) (layer B.Fab)
      (effects (font (size 1 1) (thickness 0.15)) (justify mirror))
    )
    (pad 4 thru_hole oval (at 0 -7.62 180) (size 1.7 1.7) (drill 1) (layers *.Cu *.Mask)
      (net 28 GND))
    (pad 3 thru_hole oval (at 0 -5.08 180) (size 1.7 1.7) (drill 1) (layers *.Cu *.Mask)
      (net 29 "Net-(IC1-Pad26)"))
    (pad 2 thru_hole oval (at 0 -2.54 180) (size 1.7 1.7) (drill 1) (layers *.Cu *.Mask)
      (net 7 "Net-(IC1-Pad25)"))
    (pad 1 thru_hole rect (at 0 0 180) (size 1.7 1.7) (drill 1) (layers *.Cu *.Mask)
      (net 32 "Net-(IC1-Pad16)"))
    (model ${KISYS3DMOD}/Connector_PinHeader_2.54mm.3dshapes/PinHeader_1x04_P2.54mm_Vertical.wrl
      (at (xyz 0 0 0))
      (scale (xyz 1 1 1))
      (rotate (xyz 0 0 0))
    )
  )

  (module Capacitor_THT:CP_Radial_D14.0mm_P5.00mm (layer B.Cu) (tedit 5AE50EF1) (tstamp 61EE428D)
    (at 78.74 65.532 90)
    (descr "CP, Radial series, Radial, pin pitch=5.00mm, , diameter=14mm, Electrolytic Capacitor")
    (tags "CP Radial series Radial pin pitch 5.00mm  diameter 14mm Electrolytic Capacitor")
    (path /61F34E45)
    (fp_text reference C1 (at 2.5 8.25 270) (layer B.SilkS)
      (effects (font (size 1 1) (thickness 0.15)) (justify mirror))
    )
    (fp_text value CP (at 2.5 -8.25 270) (layer B.Fab)
      (effects (font (size 1 1) (thickness 0.15)) (justify mirror))
    )
    (fp_circle (center 2.5 0) (end 9.5 0) (layer B.Fab) (width 0.1))
    (fp_circle (center 2.5 0) (end 9.62 0) (layer B.SilkS) (width 0.12))
    (fp_circle (center 2.5 0) (end 9.75 0) (layer B.CrtYd) (width 0.05))
    (fp_line (start -3.513066 3.0675) (end -2.113066 3.0675) (layer B.Fab) (width 0.1))
    (fp_line (start -2.813066 3.7675) (end -2.813066 2.3675) (layer B.Fab) (width 0.1))
    (fp_line (start 2.5 7.08) (end 2.5 -7.08) (layer B.SilkS) (width 0.12))
    (fp_line (start 2.54 7.08) (end 2.54 -7.08) (layer B.SilkS) (width 0.12))
    (fp_line (start 2.58 7.08) (end 2.58 -7.08) (layer B.SilkS) (width 0.12))
    (fp_line (start 2.62 7.079) (end 2.62 -7.079) (layer B.SilkS) (width 0.12))
    (fp_line (start 2.66 7.079) (end 2.66 -7.079) (layer B.SilkS) (width 0.12))
    (fp_line (start 2.7 7.078) (end 2.7 -7.078) (layer B.SilkS) (width 0.12))
    (fp_line (start 2.74 7.076) (end 2.74 -7.076) (layer B.SilkS) (width 0.12))
    (fp_line (start 2.78 7.075) (end 2.78 -7.075) (layer B.SilkS) (width 0.12))
    (fp_line (start 2.82 7.073) (end 2.82 -7.073) (layer B.SilkS) (width 0.12))
    (fp_line (start 2.86 7.071) (end 2.86 -7.071) (layer B.SilkS) (width 0.12))
    (fp_line (start 2.9 7.069) (end 2.9 -7.069) (layer B.SilkS) (width 0.12))
    (fp_line (start 2.94 7.067) (end 2.94 -7.067) (layer B.SilkS) (width 0.12))
    (fp_line (start 2.98 7.064) (end 2.98 -7.064) (layer B.SilkS) (width 0.12))
    (fp_line (start 3.02 7.061) (end 3.02 -7.061) (layer B.SilkS) (width 0.12))
    (fp_line (start 3.06 7.058) (end 3.06 -7.058) (layer B.SilkS) (width 0.12))
    (fp_line (start 3.1 7.055) (end 3.1 -7.055) (layer B.SilkS) (width 0.12))
    (fp_line (start 3.14 7.052) (end 3.14 -7.052) (layer B.SilkS) (width 0.12))
    (fp_line (start 3.18 7.048) (end 3.18 -7.048) (layer B.SilkS) (width 0.12))
    (fp_line (start 3.221 7.044) (end 3.221 -7.044) (layer B.SilkS) (width 0.12))
    (fp_line (start 3.261 7.04) (end 3.261 -7.04) (layer B.SilkS) (width 0.12))
    (fp_line (start 3.301 7.035) (end 3.301 -7.035) (layer B.SilkS) (width 0.12))
    (fp_line (start 3.341 7.031) (end 3.341 -7.031) (layer B.SilkS) (width 0.12))
    (fp_line (start 3.381 7.026) (end 3.381 -7.026) (layer B.SilkS) (width 0.12))
    (fp_line (start 3.421 7.021) (end 3.421 -7.021) (layer B.SilkS) (width 0.12))
    (fp_line (start 3.461 7.015) (end 3.461 -7.015) (layer B.SilkS) (width 0.12))
    (fp_line (start 3.501 7.01) (end 3.501 -7.01) (layer B.SilkS) (width 0.12))
    (fp_line (start 3.541 7.004) (end 3.541 -7.004) (layer B.SilkS) (width 0.12))
    (fp_line (start 3.581 6.998) (end 3.581 1.44) (layer B.SilkS) (width 0.12))
    (fp_line (start 3.581 -1.44) (end 3.581 -6.998) (layer B.SilkS) (width 0.12))
    (fp_line (start 3.621 6.992) (end 3.621 1.44) (layer B.SilkS) (width 0.12))
    (fp_line (start 3.621 -1.44) (end 3.621 -6.992) (layer B.SilkS) (width 0.12))
    (fp_line (start 3.661 6.985) (end 3.661 1.44) (layer B.SilkS) (width 0.12))
    (fp_line (start 3.661 -1.44) (end 3.661 -6.985) (layer B.SilkS) (width 0.12))
    (fp_line (start 3.701 6.979) (end 3.701 1.44) (layer B.SilkS) (width 0.12))
    (fp_line (start 3.701 -1.44) (end 3.701 -6.979) (layer B.SilkS) (width 0.12))
    (fp_line (start 3.741 6.972) (end 3.741 1.44) (layer B.SilkS) (width 0.12))
    (fp_line (start 3.741 -1.44) (end 3.741 -6.972) (layer B.SilkS) (width 0.12))
    (fp_line (start 3.781 6.964) (end 3.781 1.44) (layer B.SilkS) (width 0.12))
    (fp_line (start 3.781 -1.44) (end 3.781 -6.964) (layer B.SilkS) (width 0.12))
    (fp_line (start 3.821 6.957) (end 3.821 1.44) (layer B.SilkS) (width 0.12))
    (fp_line (start 3.821 -1.44) (end 3.821 -6.957) (layer B.SilkS) (width 0.12))
    (fp_line (start 3.861 6.949) (end 3.861 1.44) (layer B.SilkS) (width 0.12))
    (fp_line (start 3.861 -1.44) (end 3.861 -6.949) (layer B.SilkS) (width 0.12))
    (fp_line (start 3.901 6.942) (end 3.901 1.44) (layer B.SilkS) (width 0.12))
    (fp_line (start 3.901 -1.44) (end 3.901 -6.942) (layer B.SilkS) (width 0.12))
    (fp_line (start 3.941 6.933) (end 3.941 1.44) (layer B.SilkS) (width 0.12))
    (fp_line (start 3.941 -1.44) (end 3.941 -6.933) (layer B.SilkS) (width 0.12))
    (fp_line (start 3.981 6.925) (end 3.981 1.44) (layer B.SilkS) (width 0.12))
    (fp_line (start 3.981 -1.44) (end 3.981 -6.925) (layer B.SilkS) (width 0.12))
    (fp_line (start 4.021 6.916) (end 4.021 1.44) (layer B.SilkS) (width 0.12))
    (fp_line (start 4.021 -1.44) (end 4.021 -6.916) (layer B.SilkS) (width 0.12))
    (fp_line (start 4.061 6.907) (end 4.061 1.44) (layer B.SilkS) (width 0.12))
    (fp_line (start 4.061 -1.44) (end 4.061 -6.907) (layer B.SilkS) (width 0.12))
    (fp_line (start 4.101 6.898) (end 4.101 1.44) (layer B.SilkS) (width 0.12))
    (fp_line (start 4.101 -1.44) (end 4.101 -6.898) (layer B.SilkS) (width 0.12))
    (fp_line (start 4.141 6.889) (end 4.141 1.44) (layer B.SilkS) (width 0.12))
    (fp_line (start 4.141 -1.44) (end 4.141 -6.889) (layer B.SilkS) (width 0.12))
    (fp_line (start 4.181 6.879) (end 4.181 1.44) (layer B.SilkS) (width 0.12))
    (fp_line (start 4.181 -1.44) (end 4.181 -6.879) (layer B.SilkS) (width 0.12))
    (fp_line (start 4.221 6.87) (end 4.221 1.44) (layer B.SilkS) (width 0.12))
    (fp_line (start 4.221 -1.44) (end 4.221 -6.87) (layer B.SilkS) (width 0.12))
    (fp_line (start 4.261 6.86) (end 4.261 1.44) (layer B.SilkS) (width 0.12))
    (fp_line (start 4.261 -1.44) (end 4.261 -6.86) (layer B.SilkS) (width 0.12))
    (fp_line (start 4.301 6.849) (end 4.301 1.44) (layer B.SilkS) (width 0.12))
    (fp_line (start 4.301 -1.44) (end 4.301 -6.849) (layer B.SilkS) (width 0.12))
    (fp_line (start 4.341 6.839) (end 4.341 1.44) (layer B.SilkS) (width 0.12))
    (fp_line (start 4.341 -1.44) (end 4.341 -6.839) (layer B.SilkS) (width 0.12))
    (fp_line (start 4.381 6.828) (end 4.381 1.44) (layer B.SilkS) (width 0.12))
    (fp_line (start 4.381 -1.44) (end 4.381 -6.828) (layer B.SilkS) (width 0.12))
    (fp_line (start 4.421 6.817) (end 4.421 1.44) (layer B.SilkS) (width 0.12))
    (fp_line (start 4.421 -1.44) (end 4.421 -6.817) (layer B.SilkS) (width 0.12))
    (fp_line (start 4.461 6.805) (end 4.461 1.44) (layer B.SilkS) (width 0.12))
    (fp_line (start 4.461 -1.44) (end 4.461 -6.805) (layer B.SilkS) (width 0.12))
    (fp_line (start 4.501 6.794) (end 4.501 1.44) (layer B.SilkS) (width 0.12))
    (fp_line (start 4.501 -1.44) (end 4.501 -6.794) (layer B.SilkS) (width 0.12))
    (fp_line (start 4.541 6.782) (end 4.541 1.44) (layer B.SilkS) (width 0.12))
    (fp_line (start 4.541 -1.44) (end 4.541 -6.782) (layer B.SilkS) (width 0.12))
    (fp_line (start 4.581 6.77) (end 4.581 1.44) (layer B.SilkS) (width 0.12))
    (fp_line (start 4.581 -1.44) (end 4.581 -6.77) (layer B.SilkS) (width 0.12))
    (fp_line (start 4.621 6.758) (end 4.621 1.44) (layer B.SilkS) (width 0.12))
    (fp_line (start 4.621 -1.44) (end 4.621 -6.758) (layer B.SilkS) (width 0.12))
    (fp_line (start 4.661 6.745) (end 4.661 1.44) (layer B.SilkS) (width 0.12))
    (fp_line (start 4.661 -1.44) (end 4.661 -6.745) (layer B.SilkS) (width 0.12))
    (fp_line (start 4.701 6.732) (end 4.701 1.44) (layer B.SilkS) (width 0.12))
    (fp_line (start 4.701 -1.44) (end 4.701 -6.732) (layer B.SilkS) (width 0.12))
    (fp_line (start 4.741 6.719) (end 4.741 1.44) (layer B.SilkS) (width 0.12))
    (fp_line (start 4.741 -1.44) (end 4.741 -6.719) (layer B.SilkS) (width 0.12))
    (fp_line (start 4.781 6.706) (end 4.781 1.44) (layer B.SilkS) (width 0.12))
    (fp_line (start 4.781 -1.44) (end 4.781 -6.706) (layer B.SilkS) (width 0.12))
    (fp_line (start 4.821 6.692) (end 4.821 1.44) (layer B.SilkS) (width 0.12))
    (fp_line (start 4.821 -1.44) (end 4.821 -6.692) (layer B.SilkS) (width 0.12))
    (fp_line (start 4.861 6.678) (end 4.861 1.44) (layer B.SilkS) (width 0.12))
    (fp_line (start 4.861 -1.44) (end 4.861 -6.678) (layer B.SilkS) (width 0.12))
    (fp_line (start 4.901 6.664) (end 4.901 1.44) (layer B.SilkS) (width 0.12))
    (fp_line (start 4.901 -1.44) (end 4.901 -6.664) (layer B.SilkS) (width 0.12))
    (fp_line (start 4.941 6.649) (end 4.941 1.44) (layer B.SilkS) (width 0.12))
    (fp_line (start 4.941 -1.44) (end 4.941 -6.649) (layer B.SilkS) (width 0.12))
    (fp_line (start 4.981 6.635) (end 4.981 1.44) (layer B.SilkS) (width 0.12))
    (fp_line (start 4.981 -1.44) (end 4.981 -6.635) (layer B.SilkS) (width 0.12))
    (fp_line (start 5.021 6.62) (end 5.021 1.44) (layer B.SilkS) (width 0.12))
    (fp_line (start 5.021 -1.44) (end 5.021 -6.62) (layer B.SilkS) (width 0.12))
    (fp_line (start 5.061 6.604) (end 5.061 1.44) (layer B.SilkS) (width 0.12))
    (fp_line (start 5.061 -1.44) (end 5.061 -6.604) (layer B.SilkS) (width 0.12))
    (fp_line (start 5.101 6.589) (end 5.101 1.44) (layer B.SilkS) (width 0.12))
    (fp_line (start 5.101 -1.44) (end 5.101 -6.589) (layer B.SilkS) (width 0.12))
    (fp_line (start 5.141 6.573) (end 5.141 1.44) (layer B.SilkS) (width 0.12))
    (fp_line (start 5.141 -1.44) (end 5.141 -6.573) (layer B.SilkS) (width 0.12))
    (fp_line (start 5.181 6.557) (end 5.181 1.44) (layer B.SilkS) (width 0.12))
    (fp_line (start 5.181 -1.44) (end 5.181 -6.557) (layer B.SilkS) (width 0.12))
    (fp_line (start 5.221 6.54) (end 5.221 1.44) (layer B.SilkS) (width 0.12))
    (fp_line (start 5.221 -1.44) (end 5.221 -6.54) (layer B.SilkS) (width 0.12))
    (fp_line (start 5.261 6.524) (end 5.261 1.44) (layer B.SilkS) (width 0.12))
    (fp_line (start 5.261 -1.44) (end 5.261 -6.524) (layer B.SilkS) (width 0.12))
    (fp_line (start 5.301 6.507) (end 5.301 1.44) (layer B.SilkS) (width 0.12))
    (fp_line (start 5.301 -1.44) (end 5.301 -6.507) (layer B.SilkS) (width 0.12))
    (fp_line (start 5.341 6.49) (end 5.341 1.44) (layer B.SilkS) (width 0.12))
    (fp_line (start 5.341 -1.44) (end 5.341 -6.49) (layer B.SilkS) (width 0.12))
    (fp_line (start 5.381 6.472) (end 5.381 1.44) (layer B.SilkS) (width 0.12))
    (fp_line (start 5.381 -1.44) (end 5.381 -6.472) (layer B.SilkS) (width 0.12))
    (fp_line (start 5.421 6.454) (end 5.421 1.44) (layer B.SilkS) (width 0.12))
    (fp_line (start 5.421 -1.44) (end 5.421 -6.454) (layer B.SilkS) (width 0.12))
    (fp_line (start 5.461 6.436) (end 5.461 1.44) (layer B.SilkS) (width 0.12))
    (fp_line (start 5.461 -1.44) (end 5.461 -6.436) (layer B.SilkS) (width 0.12))
    (fp_line (start 5.501 6.418) (end 5.501 1.44) (layer B.SilkS) (width 0.12))
    (fp_line (start 5.501 -1.44) (end 5.501 -6.418) (layer B.SilkS) (width 0.12))
    (fp_line (start 5.541 6.399) (end 5.541 1.44) (layer B.SilkS) (width 0.12))
    (fp_line (start 5.541 -1.44) (end 5.541 -6.399) (layer B.SilkS) (width 0.12))
    (fp_line (start 5.581 6.38) (end 5.581 1.44) (layer B.SilkS) (width 0.12))
    (fp_line (start 5.581 -1.44) (end 5.581 -6.38) (layer B.SilkS) (width 0.12))
    (fp_line (start 5.621 6.36) (end 5.621 1.44) (layer B.SilkS) (width 0.12))
    (fp_line (start 5.621 -1.44) (end 5.621 -6.36) (layer B.SilkS) (width 0.12))
    (fp_line (start 5.661 6.341) (end 5.661 1.44) (layer B.SilkS) (width 0.12))
    (fp_line (start 5.661 -1.44) (end 5.661 -6.341) (layer B.SilkS) (width 0.12))
    (fp_line (start 5.701 6.321) (end 5.701 1.44) (layer B.SilkS) (width 0.12))
    (fp_line (start 5.701 -1.44) (end 5.701 -6.321) (layer B.SilkS) (width 0.12))
    (fp_line (start 5.741 6.301) (end 5.741 1.44) (layer B.SilkS) (width 0.12))
    (fp_line (start 5.741 -1.44) (end 5.741 -6.301) (layer B.SilkS) (width 0.12))
    (fp_line (start 5.781 6.28) (end 5.781 1.44) (layer B.SilkS) (width 0.12))
    (fp_line (start 5.781 -1.44) (end 5.781 -6.28) (layer B.SilkS) (width 0.12))
    (fp_line (start 5.821 6.259) (end 5.821 1.44) (layer B.SilkS) (width 0.12))
    (fp_line (start 5.821 -1.44) (end 5.821 -6.259) (layer B.SilkS) (width 0.12))
    (fp_line (start 5.861 6.238) (end 5.861 1.44) (layer B.SilkS) (width 0.12))
    (fp_line (start 5.861 -1.44) (end 5.861 -6.238) (layer B.SilkS) (width 0.12))
    (fp_line (start 5.901 6.216) (end 5.901 1.44) (layer B.SilkS) (width 0.12))
    (fp_line (start 5.901 -1.44) (end 5.901 -6.216) (layer B.SilkS) (width 0.12))
    (fp_line (start 5.941 6.194) (end 5.941 1.44) (layer B.SilkS) (width 0.12))
    (fp_line (start 5.941 -1.44) (end 5.941 -6.194) (layer B.SilkS) (width 0.12))
    (fp_line (start 5.981 6.172) (end 5.981 1.44) (layer B.SilkS) (width 0.12))
    (fp_line (start 5.981 -1.44) (end 5.981 -6.172) (layer B.SilkS) (width 0.12))
    (fp_line (start 6.021 6.15) (end 6.021 1.44) (layer B.SilkS) (width 0.12))
    (fp_line (start 6.021 -1.44) (end 6.021 -6.15) (layer B.SilkS) (width 0.12))
    (fp_line (start 6.061 6.127) (end 6.061 1.44) (layer B.SilkS) (width 0.12))
    (fp_line (start 6.061 -1.44) (end 6.061 -6.127) (layer B.SilkS) (width 0.12))
    (fp_line (start 6.101 6.103) (end 6.101 1.44) (layer B.SilkS) (width 0.12))
    (fp_line (start 6.101 -1.44) (end 6.101 -6.103) (layer B.SilkS) (width 0.12))
    (fp_line (start 6.141 6.08) (end 6.141 1.44) (layer B.SilkS) (width 0.12))
    (fp_line (start 6.141 -1.44) (end 6.141 -6.08) (layer B.SilkS) (width 0.12))
    (fp_line (start 6.181 6.056) (end 6.181 1.44) (layer B.SilkS) (width 0.12))
    (fp_line (start 6.181 -1.44) (end 6.181 -6.056) (layer B.SilkS) (width 0.12))
    (fp_line (start 6.221 6.031) (end 6.221 1.44) (layer B.SilkS) (width 0.12))
    (fp_line (start 6.221 -1.44) (end 6.221 -6.031) (layer B.SilkS) (width 0.12))
    (fp_line (start 6.261 6.007) (end 6.261 1.44) (layer B.SilkS) (width 0.12))
    (fp_line (start 6.261 -1.44) (end 6.261 -6.007) (layer B.SilkS) (width 0.12))
    (fp_line (start 6.301 5.982) (end 6.301 1.44) (layer B.SilkS) (width 0.12))
    (fp_line (start 6.301 -1.44) (end 6.301 -5.982) (layer B.SilkS) (width 0.12))
    (fp_line (start 6.341 5.956) (end 6.341 1.44) (layer B.SilkS) (width 0.12))
    (fp_line (start 6.341 -1.44) (end 6.341 -5.956) (layer B.SilkS) (width 0.12))
    (fp_line (start 6.381 5.93) (end 6.381 1.44) (layer B.SilkS) (width 0.12))
    (fp_line (start 6.381 -1.44) (end 6.381 -5.93) (layer B.SilkS) (width 0.12))
    (fp_line (start 6.421 5.904) (end 6.421 1.44) (layer B.SilkS) (width 0.12))
    (fp_line (start 6.421 -1.44) (end 6.421 -5.904) (layer B.SilkS) (width 0.12))
    (fp_line (start 6.461 5.878) (end 6.461 -5.878) (layer B.SilkS) (width 0.12))
    (fp_line (start 6.501 5.851) (end 6.501 -5.851) (layer B.SilkS) (width 0.12))
    (fp_line (start 6.541 5.823) (end 6.541 -5.823) (layer B.SilkS) (width 0.12))
    (fp_line (start 6.581 5.796) (end 6.581 -5.796) (layer B.SilkS) (width 0.12))
    (fp_line (start 6.621 5.767) (end 6.621 -5.767) (layer B.SilkS) (width 0.12))
    (fp_line (start 6.661 5.739) (end 6.661 -5.739) (layer B.SilkS) (width 0.12))
    (fp_line (start 6.701 5.71) (end 6.701 -5.71) (layer B.SilkS) (width 0.12))
    (fp_line (start 6.741 5.68) (end 6.741 -5.68) (layer B.SilkS) (width 0.12))
    (fp_line (start 6.781 5.65) (end 6.781 -5.65) (layer B.SilkS) (width 0.12))
    (fp_line (start 6.821 5.62) (end 6.821 -5.62) (layer B.SilkS) (width 0.12))
    (fp_line (start 6.861 5.589) (end 6.861 -5.589) (layer B.SilkS) (width 0.12))
    (fp_line (start 6.901 5.558) (end 6.901 -5.558) (layer B.SilkS) (width 0.12))
    (fp_line (start 6.941 5.527) (end 6.941 -5.527) (layer B.SilkS) (width 0.12))
    (fp_line (start 6.981 5.494) (end 6.981 -5.494) (layer B.SilkS) (width 0.12))
    (fp_line (start 7.021 5.462) (end 7.021 -5.462) (layer B.SilkS) (width 0.12))
    (fp_line (start 7.061 5.429) (end 7.061 -5.429) (layer B.SilkS) (width 0.12))
    (fp_line (start 7.101 5.395) (end 7.101 -5.395) (layer B.SilkS) (width 0.12))
    (fp_line (start 7.141 5.361) (end 7.141 -5.361) (layer B.SilkS) (width 0.12))
    (fp_line (start 7.181 5.326) (end 7.181 -5.326) (layer B.SilkS) (width 0.12))
    (fp_line (start 7.221 5.291) (end 7.221 -5.291) (layer B.SilkS) (width 0.12))
    (fp_line (start 7.261 5.255) (end 7.261 -5.255) (layer B.SilkS) (width 0.12))
    (fp_line (start 7.301 5.219) (end 7.301 -5.219) (layer B.SilkS) (width 0.12))
    (fp_line (start 7.341 5.182) (end 7.341 -5.182) (layer B.SilkS) (width 0.12))
    (fp_line (start 7.381 5.145) (end 7.381 -5.145) (layer B.SilkS) (width 0.12))
    (fp_line (start 7.421 5.107) (end 7.421 -5.107) (layer B.SilkS) (width 0.12))
    (fp_line (start 7.461 5.069) (end 7.461 -5.069) (layer B.SilkS) (width 0.12))
    (fp_line (start 7.501 5.029) (end 7.501 -5.029) (layer B.SilkS) (width 0.12))
    (fp_line (start 7.541 4.99) (end 7.541 -4.99) (layer B.SilkS) (width 0.12))
    (fp_line (start 7.581 4.949) (end 7.581 -4.949) (layer B.SilkS) (width 0.12))
    (fp_line (start 7.621 4.908) (end 7.621 -4.908) (layer B.SilkS) (width 0.12))
    (fp_line (start 7.661 4.866) (end 7.661 -4.866) (layer B.SilkS) (width 0.12))
    (fp_line (start 7.701 4.824) (end 7.701 -4.824) (layer B.SilkS) (width 0.12))
    (fp_line (start 7.741 4.781) (end 7.741 -4.781) (layer B.SilkS) (width 0.12))
    (fp_line (start 7.781 4.737) (end 7.781 -4.737) (layer B.SilkS) (width 0.12))
    (fp_line (start 7.821 4.693) (end 7.821 -4.693) (layer B.SilkS) (width 0.12))
    (fp_line (start 7.861 4.647) (end 7.861 -4.647) (layer B.SilkS) (width 0.12))
    (fp_line (start 7.901 4.601) (end 7.901 -4.601) (layer B.SilkS) (width 0.12))
    (fp_line (start 7.941 4.554) (end 7.941 -4.554) (layer B.SilkS) (width 0.12))
    (fp_line (start 7.981 4.506) (end 7.981 -4.506) (layer B.SilkS) (width 0.12))
    (fp_line (start 8.021 4.458) (end 8.021 -4.458) (layer B.SilkS) (width 0.12))
    (fp_line (start 8.061 4.408) (end 8.061 -4.408) (layer B.SilkS) (width 0.12))
    (fp_line (start 8.101 4.358) (end 8.101 -4.358) (layer B.SilkS) (width 0.12))
    (fp_line (start 8.141 4.306) (end 8.141 -4.306) (layer B.SilkS) (width 0.12))
    (fp_line (start 8.181 4.254) (end 8.181 -4.254) (layer B.SilkS) (width 0.12))
    (fp_line (start 8.221 4.2) (end 8.221 -4.2) (layer B.SilkS) (width 0.12))
    (fp_line (start 8.261 4.146) (end 8.261 -4.146) (layer B.SilkS) (width 0.12))
    (fp_line (start 8.301 4.09) (end 8.301 -4.09) (layer B.SilkS) (width 0.12))
    (fp_line (start 8.341 4.033) (end 8.341 -4.033) (layer B.SilkS) (width 0.12))
    (fp_line (start 8.381 3.975) (end 8.381 -3.975) (layer B.SilkS) (width 0.12))
    (fp_line (start 8.421 3.916) (end 8.421 -3.916) (layer B.SilkS) (width 0.12))
    (fp_line (start 8.461 3.856) (end 8.461 -3.856) (layer B.SilkS) (width 0.12))
    (fp_line (start 8.501 3.794) (end 8.501 -3.794) (layer B.SilkS) (width 0.12))
    (fp_line (start 8.541 3.73) (end 8.541 -3.73) (layer B.SilkS) (width 0.12))
    (fp_line (start 8.581 3.666) (end 8.581 -3.666) (layer B.SilkS) (width 0.12))
    (fp_line (start 8.621 3.599) (end 8.621 -3.599) (layer B.SilkS) (width 0.12))
    (fp_line (start 8.661 3.531) (end 8.661 -3.531) (layer B.SilkS) (width 0.12))
    (fp_line (start 8.701 3.461) (end 8.701 -3.461) (layer B.SilkS) (width 0.12))
    (fp_line (start 8.741 3.389) (end 8.741 -3.389) (layer B.SilkS) (width 0.12))
    (fp_line (start 8.781 3.315) (end 8.781 -3.315) (layer B.SilkS) (width 0.12))
    (fp_line (start 8.821 3.24) (end 8.821 -3.24) (layer B.SilkS) (width 0.12))
    (fp_line (start 8.861 3.161) (end 8.861 -3.161) (layer B.SilkS) (width 0.12))
    (fp_line (start 8.901 3.08) (end 8.901 -3.08) (layer B.SilkS) (width 0.12))
    (fp_line (start 8.941 2.997) (end 8.941 -2.997) (layer B.SilkS) (width 0.12))
    (fp_line (start 8.981 2.911) (end 8.981 -2.911) (layer B.SilkS) (width 0.12))
    (fp_line (start 9.021 2.821) (end 9.021 -2.821) (layer B.SilkS) (width 0.12))
    (fp_line (start 9.061 2.728) (end 9.061 -2.728) (layer B.SilkS) (width 0.12))
    (fp_line (start 9.101 2.632) (end 9.101 -2.632) (layer B.SilkS) (width 0.12))
    (fp_line (start 9.141 2.53) (end 9.141 -2.53) (layer B.SilkS) (width 0.12))
    (fp_line (start 9.181 2.425) (end 9.181 -2.425) (layer B.SilkS) (width 0.12))
    (fp_line (start 9.221 2.313) (end 9.221 -2.313) (layer B.SilkS) (width 0.12))
    (fp_line (start 9.261 2.196) (end 9.261 -2.196) (layer B.SilkS) (width 0.12))
    (fp_line (start 9.301 2.071) (end 9.301 -2.071) (layer B.SilkS) (width 0.12))
    (fp_line (start 9.341 1.938) (end 9.341 -1.938) (layer B.SilkS) (width 0.12))
    (fp_line (start 9.381 1.794) (end 9.381 -1.794) (layer B.SilkS) (width 0.12))
    (fp_line (start 9.421 1.636) (end 9.421 -1.636) (layer B.SilkS) (width 0.12))
    (fp_line (start 9.461 1.461) (end 9.461 -1.461) (layer B.SilkS) (width 0.12))
    (fp_line (start 9.501 1.262) (end 9.501 -1.262) (layer B.SilkS) (width 0.12))
    (fp_line (start 9.541 1.025) (end 9.541 -1.025) (layer B.SilkS) (width 0.12))
    (fp_line (start 9.581 0.714) (end 9.581 -0.714) (layer B.SilkS) (width 0.12))
    (fp_line (start -5.119543 3.995) (end -3.719543 3.995) (layer B.SilkS) (width 0.12))
    (fp_line (start -4.419543 4.695) (end -4.419543 3.295) (layer B.SilkS) (width 0.12))
    (fp_text user %R (at 2.5 0 270) (layer B.Fab)
      (effects (font (size 1 1) (thickness 0.15)) (justify mirror))
    )
    (pad 2 thru_hole circle (at 5 0 90) (size 2.4 2.4) (drill 1.2) (layers *.Cu *.Mask)
      (net 28 GND))
    (pad 1 thru_hole rect (at 0 0 90) (size 2.4 2.4) (drill 1.2) (layers *.Cu *.Mask)
      (net 30 VCC))
    (model ${KISYS3DMOD}/Capacitor_THT.3dshapes/CP_Radial_D14.0mm_P5.00mm.wrl
      (at (xyz 0 0 0))
      (scale (xyz 1 1 1))
      (rotate (xyz 0 0 0))
    )
  )

  (gr_line (start 97.028 82.804) (end 12.192 82.804) (layer Edge.Cuts) (width 0.05) (tstamp 61EE603E))
  (gr_line (start 97.028 11.684) (end 97.028 82.804) (layer Edge.Cuts) (width 0.05))
  (gr_line (start 12.192 11.684) (end 97.028 11.684) (layer Edge.Cuts) (width 0.05))
  (gr_line (start 12.192 11.684) (end 12.192 82.804) (layer Edge.Cuts) (width 0.05) (tstamp 61EE5900))

  (segment (start 29.718 64.262) (end 29.972 64.516) (width 1) (layer B.Cu) (net 3))
  (segment (start 29.718 58.166) (end 29.718 64.262) (width 1) (layer B.Cu) (net 3))
  (segment (start 32.258 64.262) (end 32.512 64.516) (width 1) (layer B.Cu) (net 4))
  (segment (start 32.258 58.166) (end 32.258 64.262) (width 1) (layer B.Cu) (net 4))
  (segment (start 34.798 64.262) (end 35.052 64.516) (width 1) (layer B.Cu) (net 5))
  (segment (start 34.798 58.166) (end 34.798 64.262) (width 1) (layer B.Cu) (net 5))
  (segment (start 37.338 64.262) (end 37.592 64.516) (width 1) (layer B.Cu) (net 6))
  (segment (start 37.338 58.166) (end 37.338 64.262) (width 1) (layer B.Cu) (net 6))
  (segment (start 36.068 49.276) (end 39.624 49.276) (width 1) (layer B.Cu) (net 7))
  (segment (start 42.418 52.07) (end 42.418 58.166) (width 1) (layer B.Cu) (net 7))
  (segment (start 39.624 49.276) (end 42.418 52.07) (width 1) (layer B.Cu) (net 7))
  (segment (start 57.404 37.084) (end 52.578 41.91) (width 1) (layer B.Cu) (net 16))
  (segment (start 65.024 31.496) (end 65.024 35.052) (width 1) (layer B.Cu) (net 16))
  (segment (start 52.578 41.91) (end 52.578 42.926) (width 1) (layer B.Cu) (net 16))
  (segment (start 62.992 37.084) (end 57.404 37.084) (width 1) (layer B.Cu) (net 16))
  (segment (start 65.024 35.052) (end 62.992 37.084) (width 1) (layer B.Cu) (net 16))
  (segment (start 50.038 41.402) (end 50.038 42.926) (width 1) (layer B.Cu) (net 17))
  (segment (start 60.638081 34.544) (end 56.896 34.544) (width 1) (layer B.Cu) (net 17))
  (segment (start 62.484 31.496) (end 62.484 32.698081) (width 1) (layer B.Cu) (net 17))
  (segment (start 62.484 32.698081) (end 60.638081 34.544) (width 1) (layer B.Cu) (net 17))
  (segment (start 56.896 34.544) (end 50.038 41.402) (width 1) (layer B.Cu) (net 17))
  (segment (start 47.498 40.894) (end 47.498 42.926) (width 1) (layer B.Cu) (net 18))
  (segment (start 59.944 31.496) (end 56.896 31.496) (width 1) (layer B.Cu) (net 18))
  (segment (start 56.896 31.496) (end 47.498 40.894) (width 1) (layer B.Cu) (net 18))
  (segment (start 50.673 31.496) (end 50.673 34.036) (width 1) (layer B.Cu) (net 19))
  (segment (start 44.958 39.751) (end 44.958 42.926) (width 1) (layer B.Cu) (net 19))
  (segment (start 50.673 34.036) (end 44.958 39.751) (width 1) (layer B.Cu) (net 19))
  (segment (start 42.418 38.413081) (end 42.418 42.926) (width 1) (layer B.Cu) (net 20))
  (segment (start 48.133 32.698081) (end 42.418 38.413081) (width 1) (layer B.Cu) (net 20))
  (segment (start 48.133 31.496) (end 48.133 32.698081) (width 1) (layer B.Cu) (net 20))
  (segment (start 45.593 31.496) (end 39.878 37.211) (width 1) (layer B.Cu) (net 21))
  (segment (start 39.878 37.211) (end 39.878 42.926) (width 1) (layer B.Cu) (net 21))
  (segment (start 38.608 31.496) (end 38.608 34.671) (width 1) (layer B.Cu) (net 22))
  (segment (start 37.338 35.941) (end 37.338 42.926) (width 1) (layer B.Cu) (net 22))
  (segment (start 38.608 34.671) (end 37.338 35.941) (width 1) (layer B.Cu) (net 22))
  (segment (start 36.068 31.496) (end 36.068 34.036) (width 1) (layer B.Cu) (net 23))
  (segment (start 34.798 35.306) (end 34.798 42.926) (width 1) (layer B.Cu) (net 23))
  (segment (start 36.068 34.036) (end 34.798 35.306) (width 1) (layer B.Cu) (net 23))
  (segment (start 33.528 31.496) (end 33.528 33.401) (width 1) (layer B.Cu) (net 24))
  (segment (start 32.258 34.671) (end 32.258 42.926) (width 1) (layer B.Cu) (net 24))
  (segment (start 33.528 33.401) (end 32.258 34.671) (width 1) (layer B.Cu) (net 24))
  (segment (start 25.908 31.496) (end 25.908 34.671) (width 1) (layer B.Cu) (net 25))
  (segment (start 25.908 34.671) (end 29.718 38.481) (width 1) (layer B.Cu) (net 25))
  (segment (start 29.718 38.481) (end 29.718 42.926) (width 1) (layer B.Cu) (net 25))
  (segment (start 23.368 31.496) (end 23.368 35.306) (width 1) (layer B.Cu) (net 26))
  (segment (start 27.178 39.116) (end 27.178 42.926) (width 1) (layer B.Cu) (net 26))
  (segment (start 23.368 35.306) (end 27.178 39.116) (width 1) (layer B.Cu) (net 26))
  (segment (start 20.828 31.496) (end 20.828 35.941) (width 1) (layer B.Cu) (net 27))
  (segment (start 24.638 39.751) (end 24.638 42.926) (width 1) (layer B.Cu) (net 27))
  (segment (start 20.828 35.941) (end 24.638 39.751) (width 1) (layer B.Cu) (net 27))
  (segment (start 24.638 71.778) (end 21.74 74.676) (width 1) (layer B.Cu) (net 28))
  (segment (start 26.52 73.66) (end 24.638 71.778) (width 1) (layer B.Cu) (net 28))
  (segment (start 29.972 73.66) (end 26.52 73.66) (width 1) (layer B.Cu) (net 28))
  (segment (start 24.638 55.626) (end 24.638 58.166) (width 1) (layer B.Cu) (net 28))
  (segment (start 19.916 25.296) (end 19.916 17.78) (width 1.5) (layer B.Cu) (net 28))
  (segment (start 20.02 25.4) (end 19.916 25.296) (width 1) (layer B.Cu) (net 28))
  (segment (start 25.908 54.356) (end 24.638 55.626) (width 1) (layer B.Cu) (net 28))
  (segment (start 36.068 54.356) (end 25.908 54.356) (width 1) (layer B.Cu) (net 28))
  (segment (start 19.916 25.296) (end 19.916 26.82) (width 1.5) (layer B.Cu) (net 28))
  (segment (start 19.916 26.82) (end 17.272 29.464) (width 1.5) (layer B.Cu) (net 28))
  (segment (start 17.272 29.464) (end 17.272 48.26) (width 1.5) (layer B.Cu) (net 28))
  (segment (start 31.496 16.764) (end 33.528 16.764) (width 1) (layer B.Cu) (net 28))
  (segment (start 19.916 26.82) (end 21.44 26.82) (width 1) (layer B.Cu) (net 28))
  (segment (start 21.44 26.82) (end 31.496 16.764) (width 1) (layer B.Cu) (net 28))
  (segment (start 33.528 16.764) (end 46.736 16.764) (width 1) (layer B.Cu) (net 28))
  (segment (start 46.736 16.764) (end 50.8 20.828) (width 1) (layer B.Cu) (net 28))
  (segment (start 50.8 20.828) (end 55.88 20.828) (width 1) (layer B.Cu) (net 28))
  (segment (start 57.808 18.9) (end 57.808 17.272) (width 1) (layer B.Cu) (net 28))
  (segment (start 55.88 20.828) (end 57.808 18.9) (width 1) (layer B.Cu) (net 28))
  (segment (start 24.638 71.778) (end 24.638 65.786) (width 1) (layer B.Cu) (net 28))
  (segment (start 24.638 58.166) (end 24.638 65.786) (width 1) (layer B.Cu) (net 28))
  (segment (start 24.638 65.786) (end 24.638 66.086) (width 1) (layer B.Cu) (net 28))
  (segment (start 22.098 53.086) (end 23.876 54.864) (width 1) (layer B.Cu) (net 28))
  (segment (start 17.272 48.26) (end 23.876 54.864) (width 1.5) (layer B.Cu) (net 28))
  (segment (start 22.098 42.926) (end 22.098 53.086) (width 1) (layer B.Cu) (net 28))
  (segment (start 23.876 54.864) (end 24.638 55.626) (width 1.5) (layer B.Cu) (net 28))
  (segment (start 73.152 35.56) (end 76.2 38.608) (width 1) (layer B.Cu) (net 28))
  (segment (start 71.628 35.56) (end 73.152 35.56) (width 1) (layer B.Cu) (net 28))
  (segment (start 78.74 60.452) (end 79.248 59.944) (width 1.5) (layer B.Cu) (net 28) (tstamp 61EE3F42))
  (segment (start 79.676 60.532) (end 78.74 60.532) (width 1.5) (layer B.Cu) (net 28))
  (segment (start 94.488 45.72) (end 79.676 60.532) (width 1.5) (layer B.Cu) (net 28))
  (segment (start 94.488 58.016) (end 91.44 61.064) (width 1.5) (layer B.Cu) (net 28))
  (segment (start 94.488 45.72) (end 94.488 58.016) (width 1.5) (layer B.Cu) (net 28))
  (segment (start 66.572 60.532) (end 66.04 61.064) (width 1.5) (layer B.Cu) (net 28))
  (segment (start 76.2 38.608) (end 76.2 53.34) (width 1) (layer B.Cu) (net 28))
  (segment (start 76.2 53.34) (end 71.12 58.42) (width 1) (layer B.Cu) (net 28))
  (segment (start 68.684 58.42) (end 66.04 61.064) (width 1) (layer B.Cu) (net 28))
  (segment (start 71.12 58.42) (end 68.684 58.42) (width 1) (layer B.Cu) (net 28))
  (segment (start 42.268 74.676) (end 42.268 72.032) (width 1) (layer B.Cu) (net 28))
  (segment (start 42.268 72.032) (end 42.672 71.628) (width 1) (layer B.Cu) (net 28))
  (segment (start 51.816 71.628) (end 53.848 73.66) (width 1) (layer B.Cu) (net 28))
  (segment (start 42.672 71.628) (end 51.816 71.628) (width 1) (layer B.Cu) (net 28))
  (segment (start 53.848 73.66) (end 58.42 73.66) (width 1) (layer B.Cu) (net 28))
  (segment (start 52.324 73.66) (end 50.8 75.184) (width 1) (layer B.Cu) (net 28))
  (segment (start 53.848 73.66) (end 52.324 73.66) (width 1) (layer B.Cu) (net 28))
  (segment (start 50.8 75.184) (end 50.8 77.216) (width 1) (layer B.Cu) (net 28))
  (segment (start 50.8 77.216) (end 52.324 78.74) (width 1) (layer B.Cu) (net 28))
  (segment (start 52.324 78.74) (end 70.612 78.74) (width 1) (layer B.Cu) (net 28))
  (segment (start 66.04 61.064) (end 63.904 61.064) (width 1.5) (layer B.Cu) (net 28))
  (segment (start 63.904 61.064) (end 62.992 61.976) (width 1.5) (layer B.Cu) (net 28))
  (segment (start 62.992 71.12) (end 70.612 78.74) (width 1.5) (layer B.Cu) (net 28))
  (segment (start 62.992 61.976) (end 62.992 71.12) (width 1.5) (layer B.Cu) (net 28))
  (segment (start 89.916 73.66) (end 87.63 73.66) (width 1.5) (layer B.Cu) (net 28))
  (segment (start 90.932 74.676) (end 89.916 73.66) (width 1.5) (layer B.Cu) (net 28))
  (segment (start 70.612 78.74) (end 89.916 78.74) (width 1.5) (layer B.Cu) (net 28))
  (segment (start 90.932 77.724) (end 90.932 74.676) (width 1.5) (layer B.Cu) (net 28))
  (segment (start 89.916 78.74) (end 90.932 77.724) (width 1.5) (layer B.Cu) (net 28))
  (segment (start 90.932 74.676) (end 90.932 70.104) (width 1.5) (layer B.Cu) (net 28))
  (segment (start 90.932 70.104) (end 87.884 67.056) (width 1.5) (layer B.Cu) (net 28))
  (segment (start 89.530812 61.064) (end 91.44 61.064) (width 1.5) (layer B.Cu) (net 28))
  (segment (start 87.884 62.710812) (end 89.530812 61.064) (width 1.5) (layer B.Cu) (net 28))
  (segment (start 87.884 67.056) (end 87.884 62.710812) (width 1.5) (layer B.Cu) (net 28))
  (segment (start 94.488 25.296) (end 91.948 22.756) (width 1.5) (layer B.Cu) (net 28))
  (segment (start 94.488 45.72) (end 94.488 25.296) (width 1.5) (layer B.Cu) (net 28))
  (segment (start 66.548 17.272) (end 66.548 19.812) (width 1.5) (layer B.Cu) (net 28))
  (segment (start 66.548 17.272) (end 65.024 17.272) (width 1.5) (layer B.Cu) (net 28))
  (segment (start 64.008 16.256) (end 62.484 16.256) (width 1.5) (layer B.Cu) (net 28))
  (segment (start 65.024 17.272) (end 64.008 16.256) (width 1.5) (layer B.Cu) (net 28))
  (segment (start 91.948 22.756) (end 74.064 22.756) (width 1.5) (layer B.Cu) (net 28))
  (segment (start 71.12 19.812) (end 66.548 19.812) (width 1.5) (layer B.Cu) (net 28))
  (segment (start 74.064 22.756) (end 71.12 19.812) (width 1.5) (layer B.Cu) (net 28))
  (segment (start 58.824 16.256) (end 62.484 16.256) (width 1) (layer B.Cu) (net 28))
  (segment (start 57.808 17.272) (end 58.824 16.256) (width 1) (layer B.Cu) (net 28))
  (segment (start 36.068 51.816) (end 38.608 51.816) (width 1) (layer B.Cu) (net 29))
  (segment (start 39.878 53.086) (end 39.878 58.166) (width 1) (layer B.Cu) (net 29))
  (segment (start 38.608 51.816) (end 39.878 53.086) (width 1) (layer B.Cu) (net 29))
  (segment (start 78.232 65.024) (end 78.74 65.532) (width 1.5) (layer B.Cu) (net 30))
  (segment (start 79.248 35.052) (end 79.248 53.848) (width 1.5) (layer B.Cu) (net 30))
  (segment (start 71.628 61.468) (end 71.628 65.024) (width 1.5) (layer B.Cu) (net 30))
  (segment (start 79.248 53.848) (end 71.628 61.468) (width 1.5) (layer B.Cu) (net 30))
  (segment (start 66.04 65.024) (end 71.628 65.024) (width 1.5) (layer B.Cu) (net 30))
  (segment (start 71.628 65.024) (end 78.232 65.024) (width 1.5) (layer B.Cu) (net 30))
  (segment (start 78.74 65.532) (end 78.74 72.136) (width 1) (layer B.Cu) (net 30))
  (segment (start 82.804 76.2) (end 87.63 76.2) (width 1) (layer B.Cu) (net 30))
  (segment (start 78.74 72.136) (end 82.804 76.2) (width 1) (layer B.Cu) (net 30))
  (segment (start 66.548 22.352) (end 79.248 35.052) (width 1.5) (layer B.Cu) (net 30))
  (segment (start 52.578 58.166) (end 52.578 59.182) (width 1) (layer B.Cu) (net 31))
  (segment (start 52.578 59.182) (end 53.848 60.452) (width 1) (layer B.Cu) (net 31))
  (segment (start 53.848 60.452) (end 56.896 60.452) (width 1) (layer B.Cu) (net 31))
  (segment (start 56.896 60.452) (end 58.42 58.928) (width 1) (layer B.Cu) (net 31))
  (segment (start 58.42 58.928) (end 58.42 42.164) (width 1) (layer B.Cu) (net 31))
  (segment (start 59.944 40.64) (end 71.628 40.64) (width 1) (layer B.Cu) (net 31))
  (segment (start 58.42 42.164) (end 59.944 40.64) (width 1) (layer B.Cu) (net 31))
  (segment (start 41.656 46.736) (end 52.832 46.736) (width 1) (layer B.Cu) (net 32))
  (segment (start 54.102 48.006) (end 55.118 48.006) (width 1) (layer B.Cu) (net 32))
  (segment (start 52.832 46.736) (end 54.102 48.006) (width 1) (layer B.Cu) (net 32))
  (segment (start 41.656 46.736) (end 36.068 46.736) (width 1) (layer B.Cu) (net 32))
  (segment (start 17.78 77.216) (end 17.78 74.676) (width 1.5) (layer B.Cu) (net 33))
  (segment (start 17.78 69.596) (end 17.78 77.216) (width 1.5) (layer B.Cu) (net 33))
  (segment (start 17.78 66.04) (end 17.78 69.596) (width 1.5) (layer B.Cu) (net 33))
  (segment (start 23.876 16.764) (end 20.828 13.716) (width 1.5) (layer B.Cu) (net 33))
  (segment (start 14.732 17.272) (end 14.732 62.992) (width 1.5) (layer B.Cu) (net 33))
  (segment (start 23.876 17.78) (end 23.876 16.764) (width 1.5) (layer B.Cu) (net 33))
  (segment (start 14.732 62.992) (end 17.78 66.04) (width 1.5) (layer B.Cu) (net 33))
  (segment (start 18.288 13.716) (end 14.732 17.272) (width 1.5) (layer B.Cu) (net 33))
  (segment (start 53.848 17.272) (end 52.324 17.272) (width 1.5) (layer B.Cu) (net 33))
  (segment (start 52.324 17.272) (end 48.768 13.716) (width 1.5) (layer B.Cu) (net 33))
  (segment (start 20.828 13.716) (end 19.812 13.716) (width 1.5) (layer B.Cu) (net 33))
  (segment (start 48.768 13.716) (end 19.812 13.716) (width 1.5) (layer B.Cu) (net 33))
  (segment (start 19.812 13.716) (end 18.288 13.716) (width 1.5) (layer B.Cu) (net 33))
  (segment (start 20.828 80.264) (end 17.78 77.216) (width 1.5) (layer B.Cu) (net 33))
  (segment (start 21.336 80.772) (end 20.828 80.264) (width 1.5) (layer B.Cu) (net 33))
  (segment (start 91.44 65.024) (end 91.948 65.024) (width 1.5) (layer B.Cu) (net 33))
  (segment (start 91.948 65.024) (end 94.488 67.564) (width 1.5) (layer B.Cu) (net 33))
  (segment (start 94.488 67.564) (end 94.488 79.248) (width 1.5) (layer B.Cu) (net 33))
  (segment (start 92.964 80.772) (end 52.324 80.772) (width 1.5) (layer B.Cu) (net 33))
  (segment (start 94.488 79.248) (end 92.964 80.772) (width 1.5) (layer B.Cu) (net 33))
  (segment (start 53.848 80.772) (end 52.324 80.772) (width 1.5) (layer B.Cu) (net 33))
  (segment (start 48.768 77.216) (end 46.228 74.676) (width 1.5) (layer B.Cu) (net 33))
  (segment (start 48.768 80.772) (end 48.768 77.216) (width 1.5) (layer B.Cu) (net 33))
  (segment (start 48.768 80.772) (end 21.336 80.772) (width 1.5) (layer B.Cu) (net 33))
  (segment (start 52.324 80.772) (end 48.768 80.772) (width 1.5) (layer B.Cu) (net 33))
  (segment (start 33.528 19.304) (end 34.544 19.304) (width 1) (layer B.Cu) (net 34))
  (segment (start 41.148 25.908) (end 57.404 25.908) (width 1) (layer B.Cu) (net 34))
  (segment (start 34.544 19.304) (end 41.148 25.908) (width 1) (layer B.Cu) (net 34))
  (segment (start 59.436 69.088) (end 36.068 69.088) (width 1) (layer B.Cu) (net 34))
  (segment (start 36.068 69.088) (end 32.512 72.644) (width 1) (layer B.Cu) (net 34))
  (segment (start 32.512 72.644) (end 32.512 74.676) (width 1) (layer B.Cu) (net 34))
  (segment (start 30.988 76.2) (end 29.972 76.2) (width 1) (layer B.Cu) (net 34))
  (segment (start 32.512 74.676) (end 30.988 76.2) (width 1) (layer B.Cu) (net 34))
  (segment (start 72.830081 38.1) (end 74.168 39.437919) (width 1) (layer B.Cu) (net 34))
  (segment (start 71.628 38.1) (end 72.830081 38.1) (width 1) (layer B.Cu) (net 34))
  (segment (start 74.168 39.437919) (end 74.168 52.324) (width 1) (layer B.Cu) (net 34))
  (segment (start 74.168 52.324) (end 71.628 54.864) (width 1) (layer B.Cu) (net 34))
  (segment (start 71.628 54.864) (end 62.992 54.864) (width 1) (layer B.Cu) (net 34))
  (segment (start 62.992 54.864) (end 60.452 57.404) (width 1) (layer B.Cu) (net 34))
  (segment (start 60.452 68.072) (end 59.436 69.088) (width 1) (layer B.Cu) (net 34))
  (segment (start 60.452 57.404) (end 60.452 68.072) (width 1) (layer B.Cu) (net 34))
  (segment (start 71.628 38.1) (end 70.104 38.1) (width 1) (layer B.Cu) (net 34))
  (segment (start 70.104 38.1) (end 68.072 36.068) (width 1) (layer B.Cu) (net 34))
  (segment (start 68.072 36.068) (end 68.072 28.448) (width 1) (layer B.Cu) (net 34))
  (segment (start 65.532 25.908) (end 57.404 25.908) (width 1) (layer B.Cu) (net 34))
  (segment (start 68.072 28.448) (end 65.532 25.908) (width 1) (layer B.Cu) (net 34))
  (segment (start 58.42 76.2) (end 53.848 76.2) (width 1) (layer B.Cu) (net 34))
  (segment (start 60.452 68.072) (end 60.452 75.692) (width 1) (layer B.Cu) (net 34))
  (segment (start 60.452 75.692) (end 59.944 76.2) (width 1) (layer B.Cu) (net 34))
  (segment (start 59.944 76.2) (end 58.42 76.2) (width 1) (layer B.Cu) (net 34))
  (segment (start 62.484 22.86) (end 65.532 25.908) (width 1) (layer B.Cu) (net 34))
  (segment (start 62.484 18.796) (end 62.484 22.86) (width 1) (layer B.Cu) (net 34))
  (segment (start 91.948 18.796) (end 81.788 18.796) (width 1.5) (layer B.Cu) (net 35))
  (segment (start 77.724 14.732) (end 66.548 14.732) (width 1.5) (layer B.Cu) (net 35))
  (segment (start 81.788 18.796) (end 77.724 14.732) (width 1.5) (layer B.Cu) (net 35))

)
