(module "SHDR2W114P0X396_1X2_786X850X940P" (layer F.Cu)
  (descr "B2P-VH(LF)(SN)")
  (tags "Connector")
  (fp_text reference J** (at 0 0) (layer F.SilkS)
    (effects (font (size 1.27 1.27) (thickness 0.254)))
  )
  (fp_text user %R (at 0 0) (layer F.Fab)
    (effects (font (size 1.27 1.27) (thickness 0.254)))
  )
  (fp_text value "SHDR2W114P0X396_1X2_786X850X940P" (at 0 0) (layer F.SilkS) hide
    (effects (font (size 1.27 1.27) (thickness 0.254)))
  )
  (fp_line (start -2.2 4.5) (end -2.2 -4.5) (layer F.CrtYd) (width 0.05))
  (fp_line (start -2.2 -4.5) (end 6.16 -4.5) (layer F.CrtYd) (width 0.05))
  (fp_line (start 6.16 -4.5) (end 6.16 4.5) (layer F.CrtYd) (width 0.05))
  (fp_line (start 6.16 4.5) (end -2.2 4.5) (layer F.CrtYd) (width 0.05))
  (fp_line (start -1.95 4.25) (end -1.95 -4.25) (layer F.Fab) (width 0.1))
  (fp_line (start -1.95 -4.25) (end 5.91 -4.25) (layer F.Fab) (width 0.1))
  (fp_line (start 5.91 -4.25) (end 5.91 4.25) (layer F.Fab) (width 0.1))
  (fp_line (start 5.91 4.25) (end -1.95 4.25) (layer F.Fab) (width 0.1))
  (fp_line (start 0 4.25) (end 5.91 4.25) (layer F.SilkS) (width 0.2))
  (fp_line (start 5.91 4.25) (end 5.91 -4.25) (layer F.SilkS) (width 0.2))
  (fp_line (start 5.91 -4.25) (end -1.95 -4.25) (layer F.SilkS) (width 0.2))
  (fp_line (start -1.95 -4.25) (end -1.95 0) (layer F.SilkS) (width 0.2))
  (pad 1 thru_hole rect (at 0 0) (size 2.7 2.7) (drill 1.8) (layers *.Cu *.Mask))
  (pad 2 thru_hole circle (at 3.96 0) (size 2.7 2.7) (drill 1.8) (layers *.Cu *.Mask))
  (model B2P-VH.stp
    (at (xyz 0 0 0))
    (scale (xyz 1 1 1))
    (rotate (xyz 0 0 0))
  )
)
