%TF.GenerationSoftware,KiCad,Pcbnew,5.1.10-88a1d61d58~88~ubuntu18.04.1*%
%TF.CreationDate,2022-01-29T18:32:19+01:00*%
%TF.ProjectId,pavlov_mini_face,7061766c-6f76-45f6-9d69-6e695f666163,rev?*%
%TF.SameCoordinates,Original*%
%TF.FileFunction,Copper,L1,Top*%
%TF.FilePolarity,Positive*%
%FSLAX46Y46*%
G04 Gerber Fmt 4.6, Leading zero omitted, Abs format (unit mm)*
G04 Created by KiCad (PCBNEW 5.1.10-88a1d61d58~88~ubuntu18.04.1) date 2022-01-29 18:32:19*
%MOMM*%
%LPD*%
G01*
G04 APERTURE LIST*
%TA.AperFunction,ComponentPad*%
%ADD10C,1.665000*%
%TD*%
%TA.AperFunction,ComponentPad*%
%ADD11O,1.700000X1.700000*%
%TD*%
%TA.AperFunction,ComponentPad*%
%ADD12R,1.700000X1.700000*%
%TD*%
%TA.AperFunction,Conductor*%
%ADD13C,1.500000*%
%TD*%
G04 APERTURE END LIST*
D10*
%TO.P,IC1,26*%
%TO.N,Net-(IC1-Pad26)*%
X25400000Y-48006000D03*
%TO.P,IC1,25*%
%TO.N,Net-(IC1-Pad25)*%
X27940000Y-48006000D03*
%TO.P,IC1,24*%
%TO.N,Net-(IC1-Pad24)*%
X30480000Y-48006000D03*
%TO.P,IC1,23*%
%TO.N,Net-(IC1-Pad23)*%
X33020000Y-48006000D03*
%TO.P,IC1,17*%
%TO.N,GND*%
X40640000Y-40386000D03*
%TO.P,IC1,16*%
%TO.N,+3V3*%
X40640000Y-37846000D03*
%TD*%
D11*
%TO.P,J1,4*%
%TO.N,GND*%
X35052000Y-16764000D03*
%TO.P,J1,3*%
%TO.N,+3V3*%
X32512000Y-16764000D03*
%TO.P,J1,2*%
%TO.N,Net-(IC1-Pad23)*%
X29972000Y-16764000D03*
D12*
%TO.P,J1,1*%
%TO.N,Net-(IC1-Pad24)*%
X27432000Y-16764000D03*
%TD*%
D11*
%TO.P,J2,4*%
%TO.N,GND*%
X27432000Y-63500000D03*
%TO.P,J2,3*%
%TO.N,+3V3*%
X29972000Y-63500000D03*
%TO.P,J2,2*%
%TO.N,Net-(IC1-Pad26)*%
X32512000Y-63500000D03*
D12*
%TO.P,J2,1*%
%TO.N,Net-(IC1-Pad25)*%
X35052000Y-63500000D03*
%TD*%
D13*
%TO.N,Net-(IC1-Pad26)*%
X32512000Y-63500000D02*
X32512000Y-58928000D01*
X25400000Y-51816000D02*
X25400000Y-48006000D01*
X32512000Y-58928000D02*
X25400000Y-51816000D01*
%TO.N,Net-(IC1-Pad25)*%
X35052000Y-63500000D02*
X35052000Y-57912000D01*
X27940000Y-50800000D02*
X27940000Y-48006000D01*
X35052000Y-57912000D02*
X27940000Y-50800000D01*
%TO.N,Net-(IC1-Pad24)*%
X27432000Y-16764000D02*
X27432000Y-22860000D01*
X30480000Y-25908000D02*
X30480000Y-48006000D01*
X27432000Y-22860000D02*
X30480000Y-25908000D01*
%TO.N,Net-(IC1-Pad23)*%
X33020000Y-48006000D02*
X33020000Y-23876000D01*
X29972000Y-20828000D02*
X29972000Y-16764000D01*
X33020000Y-23876000D02*
X29972000Y-20828000D01*
%TO.N,GND*%
X40640000Y-40386000D02*
X38862000Y-40386000D01*
X38862000Y-40386000D02*
X38100000Y-39624000D01*
X38100000Y-39624000D02*
X38100000Y-22860000D01*
X35052000Y-19812000D02*
X35052000Y-16764000D01*
X38100000Y-22860000D02*
X35052000Y-19812000D01*
X27432000Y-63500000D02*
X27432000Y-65024000D01*
X27432000Y-65024000D02*
X28448000Y-66040000D01*
X28448000Y-66040000D02*
X37084000Y-66040000D01*
X40640000Y-62484000D02*
X40640000Y-40386000D01*
X37084000Y-66040000D02*
X40640000Y-62484000D01*
X27432000Y-63500000D02*
X27432000Y-60960000D01*
%TO.N,+3V3*%
X32512000Y-16764000D02*
X32512000Y-19304000D01*
X32512000Y-15748000D02*
X32512000Y-16764000D01*
X34036000Y-14224000D02*
X32512000Y-15748000D01*
X38100000Y-14224000D02*
X34036000Y-14224000D01*
X40640000Y-37846000D02*
X40640000Y-16764000D01*
X40640000Y-16764000D02*
X38100000Y-14224000D01*
X29972000Y-59436000D02*
X29972000Y-63500000D01*
X22352000Y-51816000D02*
X29972000Y-59436000D01*
X22352000Y-17780000D02*
X22352000Y-51816000D01*
X34036000Y-14224000D02*
X25908000Y-14224000D01*
X25908000Y-14224000D02*
X22352000Y-17780000D01*
%TD*%
M02*
